\begin{tikzpicture}[
	every linear axis/.append style={
		text=black,
		width=\linewidth,
		height=.5\linewidth,
		nodes near coords,
		ybar,
		legend pos=north west,
		legend cell align=left,
		compat=newest,
	},
	every plot/.append style={
		fill,
	},
]

\begin{axis}[
	xlabel={Wortdistanzklasse (zunehmende Entfernung vom Controller)},
	ylabel={Anzahl der Belege (n = 34)},
	symbolic x coords={8,7,6,5,4,3,2,1,0}
]

% e
\addplot+ [color=myblue1] coordinates {
	(8, 1)
	(7, 3)
	(6, 3)
	(5, 4)
	(4, 4)
	(3, 5)
	(2, 5)
	(1, 3)
	(0, 5)
};
\addlegendentry{Typ \norm{e} (\fw{e}, \fw{Ø})};
\end{axis}

\end{tikzpicture}
