\begin{tikzpicture}
	\begin{axis}[
		ybar,fill,text=black,
		xlabel={Wortdistanzklasse (zunehmende Entfernung vom Controller)},
		ylabel={Anzahl der Belege (n = 44)},
		width=\linewidth,
		height=.5\linewidth,
		compat=newest, %Better label placement
		xtick={0,...,7},
		ytick={0,5,10,15,20,25},
		xticklabels={
			{7},
			{6},
			{5},
			{4},
			{3},
			{2},
			{1},
			{0},
		},
		tick={0,...,7},
		nodes near coords,
		% x tick label style={rotate=0, }, % font=\normalsize},
		% y tick label style={          }, % font=\normalsize},
	]

	% e
	\addplot+[ybar,fill] plot coordinates {
		(7, 0)
		(6, 0)
		(5, 0)
		(4, 0)
		(3, 2)
		(2, 1)
		(1, 0)
		(0, 0)
	};
	
	% iu
	\addplot+[ybar,fill,text=black] plot coordinates {
		(7,  1)
		(6,  1)
		(5,  0)
		(4,  7)
		(3, 19)
		(2,  6)
		(1,  6)
		(0,  1)
	};
	
	\legend{
		{Typ \norm{e} (\fw{e}, \fw{Ø})},
		{Typ \norm{iu} (\fw{iu}, \fw{i}, \fw{ú})}
	}
	\end{axis}
\end{tikzpicture}
