"set_id","c_id","c_text","c_loc","c_form_pers","c_form_num","c_form_gend","c_form_case","c_sem_pers","c_sem_num","c_sem_sex","c_sem_anim","c_pos","c_flex_type","c_flex_rhyme","c_flex_elidable","c_orig","c_assoc_c","c_comment","t_id","t_text","t_loc","t_form_pers","t_form_num","t_form_gend","t_form_case","t_sem_pers","t_sem_num","t_sem_sex","t_sem_anim","t_pos","t_flex_type","t_flex_rhyme","t_flex_elidable","t_intermed","t_floatquant","t_c_fk","t_comment","d_order","d_dist_word","d_dist_syn","d_agrrel","m_src","m_lang","m_time","m_place_name","m_place_y","m_place_x"
2280,2560,"an phaffen","I.31.061.33",,,,,,,,,"APPR",,,,1,2561,"adverbial",2280,"beide","I.31.061.33",,,,,,,,,"DIA-KO","e",0,1,0,0,,"syntactic","t>c",0,0,,31,,1254,"Zürich","47.37174","8.54226"
2280,2561,"an leien","I.31.061.33",,,,,,,,,"APPR",,,,1,2560,"adverbial",2280,"beide","I.31.061.33",,,,,,,,,"DIA-KO","e",0,1,0,0,,"syntactic","t>c",3,0,,31,,1254,"Zürich","47.37174","8.54226"
2281,2562,"an Liue","I.71.110.02",,,,,,,,,"APPR",,,,1,2563,"adverbial",2281,"beide","I.71.110.02",,,,,,,,,"DIA-KO","e",0,1,0,0,,"syntactic","t>c",0,0,,71,"wmd.",1263,"Köln","50.938055555556","6.9569444444444"
2281,2563,"an guͦde","I.71.110.02",,,,,,,,,"APPR",,,,1,2562,"adverbial",2281,"beide","I.71.110.02",,,,,,,,,"DIA-KO","e",0,1,0,0,,"syntactic","t>c",3,0,,71,"wmd.",1263,"Köln","50.938055555556","6.9569444444444"
2282,2564,"paffin","I.75.116.06","3","PL","M","NOM","3","PL","M","A","NA",,,,1,2565,,2282,"beide","I.75.116.06",,"PL","M","NOM","3+3","PL+PL","M+*","A+A","DIA-KO","e",0,0,0,0,,,"t>c",0,0,"attributive",75,"wmd.",1263,"Köln","50.938055555556","6.9569444444444"
2282,2565,"Leijn","I.75.116.07","3","PL","M","NOM","3","PL","*","A","NA",,,,1,2564,"generic",2282,"beide","I.75.116.06",,"PL","M","NOM","3+3","PL+PL","M+*","A+A","DIA-KO","e",0,0,0,0,,,"t>c",2,0,"attributive",75,"wmd.",1263,"Köln","50.938055555556","6.9569444444444"
2283,2566,"burgen","I.76.117.20","3","PL","M","NOM","3","PL","*","A","NA",,,,1,,"generic",2283,"ſi","I.76.117.22","3","PL","Ø","NOM","3+3","SG+SG","M+F","A+A","PPER","Ø",,,1,,2567,,"c>t",35,2,"phoric",76,"wmd.",1263,"Köln","50.938055555556","6.9569444444444"
2283,2567,"ſi","I.76.117.22","3","PL","Ø","NOM","3+3","SG+SG","M+F","A+A","PPER","Ø",0,0,0,2568,,2284,"beide","I.76.117.22",,"PL","Ø","NOM","3+1","PL+SG","*+M","A+A","DIA-KO","e",0,0,0,0,,"(3SG.M.A+3SG.F.A)+1SG.M.A","t>c",0,0,"attributive",76,"wmd.",1263,"Köln","50.938055555556","6.9569444444444"
2283,2568,"Wir","I.76.117.22","1","PL","Ø","NOM","1","SG","M","A","PPER",,,,1,2567,"“Ruͦthgeir der edele Vaith” (I.76.116.15); plural maiestatis",2284,"beide","I.76.117.22",,"PL","Ø","NOM","3+1","PL+SG","*+M","A+A","DIA-KO","e",0,0,0,0,,"(3SG.M.A+3SG.F.A)+1SG.M.A","t>c",2,0,"attributive",76,"wmd.",1263,"Köln","50.938055555556","6.9569444444444"
2284,2569,"in deme waſzere","I.78.118.42",,,,,,,,,"APPR",,,,1,2570,"local adverbial",2285,"beide","I.78.118.42",,,,,,,,,"DIA-KO","e",0,1,0,0,,"syntactic","t>c",0,0,,78,"wmd.",1263,"Köln","50.938055555556","6.9569444444444"
2284,2570,"vͦppe deme lande","I.78.118.42",,,,,,,,,"APPR",,,,1,2569,"local adverbial",2285,"beide","I.78.118.42",,,,,,,,,"DIA-KO","e",0,1,0,0,,"syntactic","t>c",4,0,,78,"wmd.",1263,"Köln","50.938055555556","6.9569444444444"
2285,2571,"paffin","I.78.119.14","3","PL","M","NOM","3","PL","M","A","NA",,,,1,2572,,2286,"beide","I.78.119.14",,"PL","M","NOM","3+3","PL+PL","M+*","A+A","DIA-KO","e",0,,0,0,,,"t>c",0,0,"attributive",78,"wmd.",1263,"Köln","50.938055555556","6.9569444444444"
2285,2572,"leien","I.78.119.15","3","PL","M","NOM","3","PL","*","A","NA",,,,1,2571,"generic",2286,"beide","I.78.119.14",,"PL","M","NOM","3+3","PL+PL","M+*","A+A","DIA-KO","e",0,0,0,0,,,"t>c",2,0,"attributive",78,"wmd.",1263,"Köln","50.938055555556","6.9569444444444"
2286,2573,"in vrancriche","I.83.126.30",,,,,,,,,"APPR",,,,1,2574,"local adverbial",2287,"beide","I.83.126.30",,,,,,,,,"DIA-KO","e",0,1,0,0,,"syntactic","t>c",0,0,,83,"wmd.",1264,"Köln","50.938055555556","6.9569444444444"
2286,2574,"hie","I.83.126.30",,,,,,,,,"AVD",,,,1,2573,"local adverbial",2287,"beide","I.83.126.30",,,,,,,,,"DIA-KO","e",0,1,0,0,,"syntactic","t>c",3,0,,83,"wmd.",1264,"Köln","50.938055555556","6.9569444444444"
2287,2575,"in vͦnſme Lande","I.85.128.04",,,,,,,,,"APPR",,,,1,2576,"local adverbial",2288,"beide","I.85.128.04",,,,,,,,,"DIA-KO","e",0,1,0,0,,"syntactic","t>c",0,0,,85,"wmd.",1264,"Köln","50.938055555556","6.9569444444444"
2287,2576,"andirſwa","I.85.128.05",,,,,,,,,"AVD",,,,1,2575,"local adverbial",2288,"beide","I.85.128.04",,,,,,,,,"DIA-KO","e",0,1,0,0,,"syntactic","t>c",4,0,,85,"wmd.",1264,"Köln","50.938055555556","6.9569444444444"
2288,2577,"in vͦnſme Lande","I.86.129.19",,,,,,,,,"APPR",,,,1,2578,"local adverbial",2289,"beide","I.86.129.19",,,,,,,,,"DIA-KO","e",0,1,0,0,,"syntactic","t>c",0,0,,86,"wmd.",1264,"Köln","50.938055555556","6.9569444444444"
2288,2578,"******ſwa","I.86.129.20",,,,,,,,,"AVD",,,,1,2577,"local adverbial",2289,"beide","I.86.129.19",,,,,,,,,"DIA-KO","e",0,1,0,0,,"syntactic","t>c",4,0,,86,"wmd.",1264,"Köln","50.938055555556","6.9569444444444"
2290,2579,"ich","I.199.210.25","1","SG","Ø","NOM","1","SG","F","A","PPER",,,,1,2580,"“Goͮta” (I.199.210.21)",2290,"beide","I.199.210.25",,"SG","Ø","NOM","1+3","SG+SG","F+M","A+A","DIA-KO","e",0,1,0,0,,,"t>c",0,0,"attributive",199,,1273,"Basel","47.55814","7.58769"
2290,2580,"wirt","I.199.210.25","3","SG","M","NOM","3","SG","M","A","NA",,,,1,2579,,2290,"beide","I.199.210.25",,"SG","Ø","NOM","1+3","SG+SG","F+M","A+A","DIA-KO","e",0,1,0,0,,,"t>c",3,0,"attributive",199,,1273,"Basel","47.55814","7.58769"
2292,2581,"ich","I.260.271.26","1","SG","Ø","NOM","1","SG","M","A","PPER",,,,1,2582,"“hesso” (I.260.271.26)",2300,"beiduͥ","I.260.271.26",,"SG","Ø","NOM","1+1","SG+PL","M+M","A+A","DIA-KO","ú",0,1,0,0,,,"t>c",0,0,"attributive",260,,1276,"Hohenrain","47.18165","8.3173"
2292,2582,"wir","I.260.271.26","1","PL","M","NOM","1","PL","M","A","NA",,,,1,2581,"“bruͤder” (I.260.271.27)",2300,"beiduͥ","I.260.271.26",,"SG","Ø","NOM","1+1","SG+PL","M+M","A+A","DIA-KO","ú",0,1,0,0,,,"t>c",0,0,"attributive",260,,1276,"Hohenrain","47.18165","8.3173"
2293,2583,"an vns","I.369.342.44",,,,,,,,,"APPR",,,,1,2584,"adverbial",2301,"beide","I.369.342.44",,,,,,,,,"DIA-KO","e",0,1,0,0,,"syntactic","t>c",0,0,,369,"wmd.",1278,"Schloss Naumburg","50.25268","8.856676"
2293,2584,"an vnſerim gute","I.369.342.44",,,,,,,,,"APPR",,,,1,2583,"adverbial",2301,"beide","I.369.342.44",,,,,,,,,"DIA-KO","e",0,1,0,0,,"syntactic","t>c",3,0,,369,"wmd.",1278,"Schloss Naumburg","50.25268","8.856676"
2294,2585,"herm Marquarde","I.429.382.04","3","SG","M","DAT","3","SG","M","A","NE",,,,1,,,2302,"in","I.429.382.08","3","SG","Ø","DAT","3","SG","M","A","PPER",,,,1,,2586,,"c>t",58,2,"phoric",429,,1280,"Augsburg","48.371666666667","10.898333333333"
2294,2586,"in","I.429.382.08","3","SG","Ø","DAT","3","SG","M","A","PPER",,,,0,2587,,2303,"beidiv","I.429.382.08",,"SG","Ø","DAT","3+3","SG+PL","M+M","A+A","DIA-KO","iu",0,1,0,0,,,"t>c",0,0,"attributive",429,,1280,"Augsburg","48.371666666667","10.898333333333"
2294,2587,"langenmænteln","I.429.382.08","3","PL","M","DAT","3","PL","M","A","NE",,,,1,2586,"“herm Hartmanne dem langenmantel / vnde ſinen brvdern Hainriche Vnde Chvnrade” (I.429.382.05-06)",2303,"beidiv","I.429.382.08",,"SG","Ø","DAT","3+3","SG+PL","M+M","A+A","DIA-KO","iu",0,1,0,0,,,"t>c",3,0,"attributive",429,,1280,"Augsburg","48.371666666667","10.898333333333"
2295,2588,"van Nuwenſ","II.602.026.06",,,,,,,,,"APPR",,,,1,2589,"adverbial",2304,"beide","II.602.026.06",,,,,,,,,"DIA-KO","e",0,0,0,0,,"syntactic","t>c",0,0,,602,"wmd.",1283,"Köln","50.938055555556","6.9569444444444"
2295,2589,"van alderſ","II.602.026.06",,,,,,,,,"APPR",,,,1,2588,"adverbial",2304,"beide","II.602.026.06",,,,,,,,,"DIA-KO","e",0,0,0,0,,"syntactic","t>c",3,0,,602,"wmd.",1283,"Köln","50.938055555556","6.9569444444444"
2296,2590,"geiſtlich","II.602.028.10",,"SG","F","GEN","3","SG","Ø","I","ADJN",,,,0,2591,"“weringe” (II.602.028.10)",2305,"beide","II.602.028.10",,,,,"3+3","SG+SG","Ø+Ø","I+I","DIA-KO","e",0,0,0,0,,"syntactic","t>c",0,0,"attributive",602,"wmd.",1283,"Köln","50.938055555556","6.9569444444444"
2296,2591,"wereltlich","II.602.028.10",,"SG","F","GEN","3","SG","Ø","I","ADJN",,,,0,2590,"“weringe” (II.602.028.10)",2305,"beide","II.602.028.10",,,,,"3+3","SG+SG","Ø+Ø","I+I","DIA-KO","e",0,0,0,0,,"syntactic","t>c",2,0,"attributive",602,"wmd.",1283,"Köln","50.938055555556","6.9569444444444"
2297,2592,"geiſtlich","II.602.028.31",,"PL","N","DAT","3","PL","Ø","I","ADJN",,,,0,2593,"“vorworden” (II.602.028.30)",2306,"beide","II.602.028.31",,,,,"3+3","PL+PL","Ø+Ø","I+I","DIA-KO","e",0,0,0,0,,"syntactic","t>c",0,0,"attributive",602,"wmd.",1283,"Köln","50.938055555556","6.9569444444444"
2297,2593,"wereltlich","II.602.028.31",,"PL","N","DAT","3","PL","Ø","I","ADJN",,,,0,2592,"“vorworden” (II.602.028.30)",2306,"beide","II.602.028.31",,,,,"3+3","PL+PL","Ø+Ø","I+I","DIA-KO","e",0,0,0,0,,"syntactic","t>c",2,0,"attributive",602,"wmd.",1283,"Köln","50.938055555556","6.9569444444444"
2298,2594,"criſtene","II.604.030.02","3","PL","M","NOM","3","PL","*","A","NA",,,,1,2595,"generic",2307,"beyde","II.604.030.02",,"PL","M","NOM","3+3","PL+PL","*+*","A+A","DIA-KO","e",0,,0,0,,"(M+F)+(M+F)","t>c",0,0,"attributive",604,"wmd.",1283,"Worms","49.633055555556","8.3608333333333"
2298,2595,"juͦden","II.604.030.02","3","PL","M","NOM","3","PL","*","A","NA",,,,1,2594,"generic",2307,"beyde","II.604.030.02",,"PL","M","NOM","3+3","PL+PL","*+*","A+A","DIA-KO","e",0,0,0,0,,"(M+F)+(M+F)","t>c",2,0,"attributive",604,"wmd.",1283,"Worms","49.633055555556","8.3608333333333"
2299,2596,"van Nuwenſ","II.623.050.22",,,,,,,,,"APPR",,,,1,2597,"adverbial",2308,"beide","II.623.050.22",,,,,,,,,"DIA-KO","e",0,0,0,0,,"syntactic","t>c",0,0,,623,"wmd.",1284,"Köln","50.938055555556","6.9569444444444"
2299,2597,"van alderſ","II.623.050.22",,,,,,,,,"APPR",,,,1,2596,"adverbial",2308,"beide","II.623.050.22",,,,,,,,,"DIA-KO","e",0,0,0,0,,"syntactic","t>c",3,0,,623,"wmd.",1284,"Köln","50.938055555556","6.9569444444444"
2300,2598,"red","II.627.055.30","3","SG","F","ACC","3","SG","Ø","I","NA",,,,1,2599,"ellipsis",2309,"beidiû","II.627.055.30",,"SG","F","ACC","3+3","SG+SG","Ø+Ø","I+I","DIA-KO","iu",0,,0,0,,,"t>c",0,0,"attributive",627,,1284,"St. Veit an der Glan","46.766666666667","14.360277777778"
2300,2599,"[red]","II.627.055.30","3","SG","F","ACC","3","SG","Ø","I","NA",,,,1,2598,"ellipsis",2309,"beidiû","II.627.055.30",,"SG","F","ACC","3+3","SG+SG","Ø+Ø","I+I","DIA-KO","iu",0,0,0,0,,,"t>c",4,0,"attributive",627,,1284,"St. Veit an der Glan","46.766666666667","14.360277777778"
2301,2600,"b~ger","II.632.062.33","3","PL","M","ACC","3","PL","*","A","NA",,,,1,2601,"generic",2310,"beide","II.632.062.33",,"PL","M","ACC","3+3","PL+PL","M+F","A+A","DIA-KO","e",0,,0,0,,,"t>c",2,0,"attributive",632,,1284,"Basel","47.55814","7.58769"
2301,2601,"rat","II.632.062.33","3","PL","M","ACC","3","PL","M","A","NA",,,,1,2600,,2310,"beide","II.632.062.33",,"PL","M","ACC","3+3","PL+PL","M+F","A+A","DIA-KO","e",0,0,0,0,,,"t>c",5,0,"attributive",632,,1284,"Basel","47.55814","7.58769"
2302,2602,"lúte","II.701.106.47","3","PL","M","ACC","3","PL","*","A","NA",,,,1,2603,"generic",2311,"bedú","II.701.106.47",,"PL","M","ACC","3+3","PL+?","*+Ø","A+I","DIA-KO","ú",0,,0,0,,,"t>c",0,0,"attributive",701,,1285,"Nellenburg","47.848611111111","8.9847222222222"
2302,2603,"guͦt","II.701.106.47","3","?","N","ACC","3","?","Ø","I","NA",,,,1,2602,,2311,"bedú","II.701.106.47",,"PL","M","ACC","3+3","PL+?","*+Ø","A+I","DIA-KO","ú",0,0,0,0,,,"t>c",2,0,"attributive",701,,1285,"Nellenburg","47.848611111111","8.9847222222222"
2303,2604,"jn vnſeme Lande","II.1076.377.04",,,,,,,,,"APPR",,,,1,2605,"local adverbial",2312,"beide","II.1076.377.04",,,,,,,,,"DIA-KO","e",0,1,0,0,,"syntactic","t>c",0,0,,1076,"wmd.",1289,"Köln","50.938055555556","6.9569444444444"
2303,2605,"anderſwa","II.1076.377.04",,,,,,,,,"AVD",,,,1,2604,"local adverbial",2312,"beide","II.1076.377.04",,,,,,,,,"DIA-KO","e",0,1,0,0,,"syntactic","t>c",4,0,,1076,"wmd.",1289,"Köln","50.938055555556","6.9569444444444"
2304,2606,"ſweher","II.1137.421.08","3","SG","M","NOM","3","SG","M","A","NA",,,,1,2607,,2313,"pediv","II.1137.421.08",,"SG","M","NOM","3+3","SG+SG","M+M","A+A","DIA-KO","iu",0,,0,0,,,"t>c",1,0,"attributive",1137,,1289,"Baumgartenberg","48.208888888889","14.744166666667"
2304,2607,"ſwiger","II.1137.421.08","3","SG","M","NOM","3","SG","M","A","NA",,,,1,2606,,2313,"pediv","II.1137.421.08",,"SG","M","NOM","3+3","SG+SG","M+M","A+A","DIA-KO","iu",0,0,0,0,,,"t>c",5,0,"attributive",1137,,1289,"Baumgartenberg","48.208888888889","14.744166666667"
2305,2608,"gaiſtlich","II.1153.431.44",,"PL","M","NOM","3","PL","*","A","ADJN",,,,0,2609,"“leut” (II.1153.431.44); generic",2314,"peideu","II.1153.431.44",,,,,"3+3","PL+PL","*+*","A+A","DIA-KO","iu",0,0,0,0,,"syntactic","t>c",0,0,"attributive",1153,,1289,"Engelthal","49.471904","11.398453"
2305,2609,"wertlich","II.1153.431.44",,"PL","M","NOM","3","PL","*","A","ADJN",,,,0,2608,"“leut” (II.1153.431.44); generic",2314,"peideu","II.1153.431.44",,,,,"3+3","PL+PL","*+*","A+A","DIA-KO","iu",0,0,0,0,,"syntactic","t>c",2,0,"attributive",1153,,1289,"Engelthal","49.471904","11.398453"
2306,2610,"an livten","II.1217.482.10",,,,,,,,,"APPR",,,,1,2611,"adverbial",2315,"beidev","II.1217.482.10",,,,,,,,,"DIA-KO","iu",0,1,0,0,,"syntactic","t>c",0,0,,1217,,1290,"Salzburg","47.8","13.033333333333"
2306,2611,"an guͦt","II.1217.482.10",,,,,,,,,"APPR",,,,1,2610,"adverbial",2315,"beidev","II.1217.482.10",,,,,,,,,"DIA-KO","iu",0,1,0,0,,"syntactic","t>c",3,0,,1217,,1290,"Salzburg","47.8","13.033333333333"
2308,2612,"ſtal","II.1234.489.01","3","SG","M","ACC","3","SG","Ø","I","NA",,,,1,2613,,2316,"beide","II.1234.489.01",,"SG","M","ACC","3+3","SG+PL","Ø+Ø","I+I","DIA-KO","e",0,,0,0,,,"t>c",0,0,"attributive",1234,,1290,"Basel","47.55814","7.58769"
2308,2613,"garten","II.1234.489.01","3","PL","M","ACC","3","PL","Ø","I","NA",,,,1,2612,,2316,"beide","II.1234.489.01",,"SG","M","ACC","3+3","SG+PL","Ø+Ø","I+I","DIA-KO","e",0,0,0,0,,,"t>c",3,0,"attributive",1234,,1290,"Basel","47.55814","7.58769"
2309,2614,"hauz","II.1282.527.04","3","SG","N","NOM","3","SG","Ø","I","NA",,,,1,2615,,2317,"bediv","II.1282.527.04",,"SG","N","NOM","3+3","SG+SG","Ø+Ø","I+I","DIA-KO","iu",0,,0,0,,,"t>c",0,0,"attributive",1282,,1290,"Regensburg","49.017222222222","12.096944444444"
2309,2615,"hoſtat","II.1282.527.04","3","SG","F","NOM","3","SG","Ø","I","NA",,,,1,2614,,2317,"bediv","II.1282.527.04",,"SG","N","NOM","3+3","SG+SG","Ø+Ø","I+I","DIA-KO","iu",0,0,0,0,,,"t>c",3,0,"attributive",1282,,1290,"Regensburg","49.017222222222","12.096944444444"
2310,2616,"hauz","II.1282.527.06","3","SG","N","NOM","3","SG","Ø","I","NA",,,,1,2617,,2318,"bediv","II.1282.527.06",,"SG","N","NOM","3+3","SG+SG","Ø+Ø","I+I","DIA-KO","iu",0,,0,0,,,"t>c",0,0,"attributive",1282,,1290,"Regensburg","49.017222222222","12.096944444444"
2310,2617,"hofſtat","II.1282.527.06","3","SG","F","NOM","3","SG","Ø","I","NA",,,,1,2616,,2318,"bediv","II.1282.527.06",,"SG","N","NOM","3+3","SG+SG","Ø+Ø","I+I","DIA-KO","iu",0,0,0,0,,,"t>c",3,0,"attributive",1282,,1290,"Regensburg","49.017222222222","12.096944444444"
2311,2618,"allen","II.1352.580.08","3","PL","Ø","DAT","3","PL","*","A","NA",,,,1,,"generic (DI>NA); ellipsis",2319,"di","II.1352.580.08","3","PL","Ø","NOM","3","PL","*","A","DRELS","Ø",0,0,1,,2619,"(M+F)+(M+F)","c>t",8,2,"phoric",1352,,1291,"Wien","48.208330230278","16.373063840833"
2311,2619,"di","II.1352.580.08","3","PL","Ø","NOM","3","PL","*","A","DRELS","Ø",0,0,0,2620,"relative clause; “di nv lebent”; ellipsis",2320,"bediv","II.1352.580.08",,"PL","Ø","NOM","3+3","PL+PL","*+*","A+A","DIA-KO","iu",0,0,0,0,,"(M+F)+(M+F)","t>c",0,0,"attributive",1352,,1291,"Wien","48.208330230278","16.373063840833"
2311,2618,"allen","II.1352.580.08","3","PL","Ø","DAT","3","PL","*","A","NA",,,,1,,"generic (DI>NA); ellipsis",2321,"[di]","II.1352.580.08","3","PL","Ø","NOM","3","PL","*","A","DRELS","Ø",0,0,1,,2620,"(M+F)+(M+F)","c>t",12,2,"phoric",1352,,1291,"Wien","48.208330230278","16.373063840833"
2311,2620,"[di]","II.1352.580.08","3","PL","Ø","NOM","3","PL","*","A","DRELS","Ø",0,0,0,2619,"relative clause; “[di] hernahe chvmftige ſint”; ellipsis",2320,"bediv","II.1352.580.08",,"PL","Ø","NOM","3+3","PL+PL","*+*","A+A","DIA-KO","iu",0,0,0,0,,"(M+F)+(M+F)","t>c",4,0,"attributive",1352,,1291,"Wien","48.208330230278","16.373063840833"
2312,2621,"allen","II.1382.598.32","3","PL","Ø","DAT","3","PL","*","A","NA",,,,1,,"generic (DI>NA); ellipsis",2322,"die","II.1382.598.33","3","PL","Ø","NOM","3","PL","*","A","DRELS","e",0,0,1,,2622,"(M+F)+(M+F)","c>t",10,2,"phoric",1382,,1291,"Wien","48.208330230278","16.373063840833"
2312,2622,"die","II.1382.598.33","3","PL","Ø","NOM","3","PL","*","A","DRELS","e",0,0,0,2623,"relative clause; “die nv lebent”; ellipsis",2323,"baidev","II.1382.598.33",,"PL","Ø","NOM","3+3","PL+PL","*+*","A+A","DIA-KO","iu",0,0,0,0,,"(M+F)+(M+F)","t>c",0,0,"attributive",1382,,1291,"Wien","48.208330230278","16.373063840833"
2312,2621,"allen","II.1382.598.32","3","PL","Ø","DAT","3","PL","*","A","NA",,,,1,,"generic (DI>NA); ellipsis",2324,"[die]","II.1382.598.33","3","PL","Ø","NOM","3","PL","*","A","DRELS","e",0,0,1,,2623,"(M+F)+(M+F)","c>t",14,2,"phoric",1382,,1291,"Wien","48.208330230278","16.373063840833"
2312,2623,"[die]","II.1382.598.33","3","PL","Ø","NOM","3","PL","*","A","DRELS","e",0,0,0,2622,"relative clause; “[die] her nach chvnftich ſint”; ellipsis",2323,"baidev","II.1382.598.33",,"PL","Ø","NOM","3+3","PL+PL","*+*","A+A","DIA-KO","iu",0,0,0,0,,"(M+F)+(M+F)","t>c",4,0,"attributive",1382,,1291,"Wien","48.208330230278","16.373063840833"
2313,2624,"Gedravten","II.1382.598.40","3","SG","F","DAT","3","SG","F","A","NE",,,,1,2625,,2325,"baidev","II.1382.598.40",,"SG","F","DAT","3+3","SG+SG","F+F","A+A","DIA-KO","iu",0,,0,0,,,"t>c",0,0,"attributive",1382,,1291,"Wien","48.208330230278","16.373063840833"
2313,2625,"Diemveten","II.1382.598.40","3","SG","F","DAT","3","SG","F","A","NE",,,,1,2624,,2325,"baidev","II.1382.598.40",,"SG","F","DAT","3+3","SG+SG","F+F","A+A","DIA-KO","iu",0,0,0,0,,,"t>c",2,0,"attributive",1382,,1291,"Wien","48.208330230278","16.373063840833"
2314,2626,"hovſes","II.1436.638.18","3","SG","M","GEN","3","SG","Ø","I","NA",,,,1,2627,,2326,"baidev","II.1436.638.18",,"SG","M","GEN","3+3","SG+SG","Ø+Ø","I+I","DIA-KO","iu",0,,0,0,,,"t>c",1,0,"attributive",1436,,1291,"Linz an der Donau","48.303055555556","14.290555555556"
2314,2627,"vertigunge","II.1436.638.18","3","SG","F","GEN","3","SG","Ø","I","NA",,,,1,2626,,2326,"baidev","II.1436.638.18",,"SG","M","GEN","3+3","SG+SG","Ø+Ø","I+I","DIA-KO","iu",0,0,0,0,,,"t>c",5,0,"attributive",1436,,1291,"Linz an der Donau","48.303055555556","14.290555555556"
2315,2628,"von in","II.1545.705.41",,,,,,,,,"APPR",,,,1,2629,"adverbial",2327,"beidv","II.1545.705.41",,,,,,,,,"DIA-KO","ú",0,0,0,0,,"syntactic","t>c",0,0,,1545,,1292,"Kloster Salem","47.776111111111","9.2772222222222"
2315,2629,"von ir erben","II.1545.705.41",,,,,,,,,"APPR",,,,1,2628,"adverbial",2327,"beidv","II.1545.705.41",,,,,,,,,"DIA-KO","ú",0,0,0,0,,"syntactic","t>c",3,0,,1545,,1292,"Kloster Salem","47.776111111111","9.2772222222222"
2316,2630,"vor dem Grauen fridrich","II.1566.717.23",,,,,,,,,"APPR",,,,1,2631,"local adverbial",2328,"beidv","II.1566.717.23",,,,,,,,,"DIA-KO","ú",0,0,0,0,,"syntactic","t>c",0,0,,1566,,1292,"Hüfingen","47.926111111111","8.49"
2316,2631,"vor der Graͤvin von fvͥrſtenberg","II.1566.717.23",,,,,,,,,"APPR",,,,1,2630,"local adverbial",2328,"beidv","II.1566.717.23",,,,,,,,,"DIA-KO","ú",0,0,0,0,,"syntactic","t>c",6,0,,1566,,1292,"Hüfingen","47.926111111111","8.49"
2317,2632,"hern Hainrichen","II.1568.718.08","3","SG","M","DAT","3","SG","M","A","NE",,,,1,,,2329,"im","II.1568.718.09","3","SG","M","DAT","3","SG","M","A","PPER",,,,1,,2633,,"c>t",9,2,"phoric",1568,,1292,"Wien","48.208330230278","16.373063840833"
2317,2633,"im","II.1568.718.09","3","SG","M","DAT","3","SG","M","A","PPER",,,,0,2634,,2330,"baidev","II.1568.718.09",,"SG","M","DAT","3+3","SG+SG","M+F","A+A","DIA-KO","iu",0,1,0,0,,,"t>c",0,0,"attributive",1568,,1292,"Wien","48.208330230278","16.373063840833"
2317,2634,"havſvrowen","II.1568.718.09","3","SG","F","DAT","3","SG","F","A","NA",,,,1,2633,,2330,"baidev","II.1568.718.09",,"SG","M","DAT","3+3","SG+SG","M+F","A+A","DIA-KO","iu",0,1,0,0,,,"t>c",3,0,"attributive",1568,,1292,"Wien","48.208330230278","16.373063840833"
2318,2635,"ich","II.1578.724.11","1","SG","Ø","NOM","3","SG","M","A","PPER",,,,1,2636,"“wernher” (II.1578.724.11); reading based on original punctuation",2331,"baidev","II.1578.724.11",,"SG","Ø","NOM","3+3","SG+SG","M+M","A+A","DIA-KO","iu",0,1,0,0,,,"t>c",0,0,"attributive",1578,,1292,"Wien","48.208330230278","16.373063840833"
2318,2636,"her Levtwin von werde","II.1578.724.11","3","SG","M","NOM","3","SG","M","A","NE",,,,1,2635,"reading based on original punctuation",2331,"baidev","II.1578.724.11",,"SG","Ø","NOM","3+3","SG+SG","M+M","A+A","DIA-KO","iu",0,1,0,0,,,"t>c",3,0,"attributive",1578,,1292,"Wien","48.208330230278","16.373063840833"
2319,2637,"lút","II.1620.755.19","3","?","N","NOM","3","?","*","A","NA",,,,1,2638,,2332,"beide","II.1620.755.19",,"?","N","NOM","3+3","?+?","*+Ø","A+I","DIA-KO","e",0,,0,0,,,"t>c",0,0,"attributive",1620,,1292,"Burg Ochsenstein","48.682882355556","7.2997391225"
2319,2638,"guͦt","II.1620.755.19","3","?","N","NOM","3","?","Ø","I","NA",,,,1,2637,,2332,"beide","II.1620.755.19",,"?","N","NOM","3+3","?+?","*+Ø","A+I","DIA-KO","e",0,0,0,0,,,"t>c",2,0,"attributive",1620,,1292,"Burg Ochsenstein","48.682882355556","7.2997391225"
2320,2639,"in vnſme lande","III.1758.068.44",,,,,,,,,"APPR",,,,1,2640,"local adverbial",2333,"beide","III.1758.068.44",,,,,,,,,"DIA-KO","e",0,1,0,0,,"syntactic","t>c",0,0,,1758,"wmd.",1293,"Köln","50.938055555556","6.9569444444444"
2320,2640,"anderſwa","III.1758.068.44",,,,,,,,,"AVD",,,,1,2639,"local adverbial",2333,"beide","III.1758.068.44",,,,,,,,,"DIA-KO","e",0,1,0,0,,"syntactic","t>c",4,0,,1758,"wmd.",1293,"Köln","50.938055555556","6.9569444444444"
2321,2641,"gewnnen","III.1764.071.26",,"SG","N","ACC","3","SG","Ø","I","ADJN",,,,0,2642,"“gvͦt” (III.1764.071.25)",2334,"beide","III.1764.071.26",,,,,"3+3","SG+SG","Ø+Ø","I+I","DIA-KO","e",0,0,0,0,,"syntactic","t>c",0,0,"attributive",1764,,1293,"Bamberg","49.891666666667","10.891666666667"
2321,2642,"vngewnnen","III.1764.071.26",,"SG","N","ACC","3","SG","Ø","I","ADJN",,,,0,2641,"“gvͦt” (III.1764.071.25)",2334,"beide","III.1764.071.26",,,,,"3+3","SG+SG","Ø+Ø","I+I","DIA-KO","e",0,0,0,0,,"syntactic","t>c",2,0,"attributive",1764,,1293,"Bamberg","49.891666666667","10.891666666667"
2322,2643,"livte","III.1802.125.01","3","PL","M","ACC","3","PL","*","A","NA",,,,1,2644,"generic",2335,"baidiv","III.1802.125.01",,"PL","M","ACC","3+3","PL+?","*+Ø","A+I","DIA-KO","iu",0,,0,0,,,"t>c",0,0,"attributive",1802,,1293,"St. Gallen","47.42356","9.37749"
2322,2644,"gvͦt","III.1802.125.01","3","?","N","ACC","3","?","Ø","I","NA",,,,1,2643,,2335,"baidiv","III.1802.125.01",,"PL","M","ACC","3+3","PL+?","*+Ø","A+I","DIA-KO","iu",0,0,0,0,,,"t>c",2,0,"attributive",1802,,1293,"St. Gallen","47.42356","9.37749"
2323,2645,"livte","III.1802.125.04","3","PL","M","NOM","3","PL","*","A","NA",,,,1,2646,"generic",2336,"baidiv","III.1802.125.04",,"PL","M","NOM","3+3","PL+?","*+Ø","A+I","DIA-KO","iu",0,,0,0,,,"t>c",0,0,"attributive",1802,,1293,"St. Gallen","47.42356","9.37749"
2323,2646,"gvͦt","III.1802.125.05","3","?","N","NOM","3","?","Ø","I","NA",,,,1,2645,,2336,"baidiv","III.1802.125.04",,"PL","M","NOM","3+3","PL+?","*+Ø","A+I","DIA-KO","iu",0,0,0,0,,,"t>c",2,0,"attributive",1802,,1293,"St. Gallen","47.42356","9.37749"
2324,2647,"criſten","III.1831.140.40","3","PL","M","NOM","3","PL","*","A","NA",,,,1,2648,"generic",2337,"beide","III.1831.140.40",,"PL","M","NOM","3+3","PL+PL","*+*","A+A","DIA-KO","e",0,,0,0,,"(M+F)+(M+F)","t>c",0,0,"attributive",1831,"wmd.",1293,"Worms","49.633055555556","8.3608333333333"
2324,2648,"juden","III.1831.140.40","3","PL","M","NOM","3","PL","*","A","NA",,,,1,2647,"generic",2337,"beide","III.1831.140.40",,"PL","M","NOM","3+3","PL+PL","*+*","A+A","DIA-KO","e",0,0,0,0,,"(M+F)+(M+F)","t>c",2,0,"attributive",1831,"wmd.",1293,"Worms","49.633055555556","8.3608333333333"
2325,2649,"fur vnſ","III.1971.224.46",,,,,,,,,"APPR",,,,1,2650,"adverbial",2338,"beidiv","III.1971.224.46",,,,,,,,,"DIA-KO","iu",0,0,0,0,,"syntactic","t>c",0,0,,1971,,1294,"Nürnberg","49.455555555556","11.078611111111"
2325,2650,"fur vnſer nahkomen","III.1971.224.46",,,,,,,,,"APPR",,,,1,2649,"adverbial",2338,"beidiv","III.1971.224.46",,,,,,,,,"DIA-KO","iu",0,0,0,0,,"syntactic","t>c",3,0,,1971,,1294,"Nürnberg","49.455555555556","11.078611111111"
2327,2651,"von vnſirre [bette]","III.2174.345.24",,,,,,,,,"APPR",,,,1,2652,"adverbial",2339,"beidu","III.2174.345.24",,,,,,,,,"DIA-KO","ú",0,0,0,0,,"syntactic","t>c",0,0,,2174,,1295,"Mülhausen","47.748611111111","7.3394444444444"
2327,2652,"[von] ir allir bette","III.2174.345.24",,,,,,,,,"APPR",,,,1,2651,"adverbial",2339,"beidu","III.2174.345.24",,,,,,,,,"DIA-KO","ú",0,0,0,0,,"syntactic","t>c",3,0,,2174,,1295,"Mülhausen","47.748611111111","7.3394444444444"
2328,2653,"Ledic","III.2293.420.23",,"SG","F","GEN","3","SG","Ø","I","ADJD",,,,0,2654,"“anſprache” (III.2293.420.23)",2340,"beidiv","III.2293.420.23",,,,,,,,,"DIA-KO","iu",0,0,0,0,,"syntactic","t>c",0,0,"attributive",2293,,1295,"Bamberg","49.891666666667","10.891666666667"
2328,2654,"vri","III.2293.420.23",,"SG","F","GEN","3","SG","Ø","I","ADJD",,,,0,2653,"“anſprache” (III.2293.420.23)",2340,"beidiv","III.2293.420.23",,,,,,,,,"DIA-KO","iu",0,0,0,0,,"syntactic","t>c",2,0,"attributive",2293,,1295,"Bamberg","49.891666666667","10.891666666667"
2329,2655,"klein","III.2293.420.30",,"SG","N","ACC","3","SG","Ø","I","ADJN",,,,0,2656,"“zinsgelt” (III.2293.420.30)",2341,"beide","III.2293.420.30",,,,,"3+3","SG+SG","Ø+Ø","I+I","DIA-KO","e",0,0,0,0,,"syntactic","t>c",0,0,"attributive",2293,,1295,"Bamberg","49.891666666667","10.891666666667"
2329,2656,"groz","III.2293.420.30",,"SG","N","ACC","3","SG","Ø","I","ADJN",,,,0,2655,"“zinsgelt” (III.2293.420.30)",2341,"beide","III.2293.420.30",,,,,"3+3","SG+SG","Ø+Ø","I+I","DIA-KO","e",0,0,0,0,,"syntactic","t>c",2,0,"attributive",2293,,1295,"Bamberg","49.891666666667","10.891666666667"
2330,2657,"gehoͤrt","III.2307.429.08","3","PL","M","NOM","3","PL","*","A","VVPP",,,,1,2658,"“levte” (III.2307.429.08)",2342,"bediv","III.2307.429.08",,,,,,,,,"DIA-KO","iu",0,0,0,0,,"syntactic","t>c",0,0,,2307,,1296,"München","48.137222222222","11.575555555556"
2330,2658,"geſehen","III.2307.429.08","3","PL","M","NOM","3","PL","*","A","VVPP",,,,1,2657,"“levte” (III.2307.429.08)",2342,"bediv","III.2307.429.08",,,,,,,,,"DIA-KO","iu",0,0,0,0,,"syntactic","t>c",2,0,,2307,,1296,"München","48.137222222222","11.575555555556"
2331,2659,"reben","III.2350.460.18","3","PL","F","ACC","3","PL","Ø","I","NA",,,,1,2660,,2343,"beide","III.2350.460.18",,"PL","F","ACC","3+3","PL+PL","Ø+Ø","I+I","DIA-KO","e",0,,0,0,,,"t>c",0,0,"attributive",2350,,1296,"Eimeldingen","47.630555555556","7.5947222222222"
2331,2660,"teil","III.2350.460.18","3","SG","M","ACC","3","PL","Ø","I","NA",,,,1,2659,,2343,"beide","III.2350.460.18",,"PL","F","ACC","3+3","PL+PL","Ø+Ø","I+I","DIA-KO","e",0,0,0,0,,,"t>c",3,0,"attributive",2350,,1296,"Eimeldingen","47.630555555556","7.5947222222222"
2332,2661,"reben","III.2353.462.28","3","PL","F","ACC","3","PL","Ø","I","NA",,,,1,2662,,2344,"beidv","III.2353.462.28",,"PL","F","ACC","3+3","PL+PL","Ø+Ø","I+I","DIA-KO","ú",0,,0,0,,,"t>c",0,0,"attributive",2353,,1296,"Basel","47.55814","7.58769"
2332,2662,"garten","III.2353.462.29","3","SG","M","ACC","3","PL","Ø","I","NA",,,,1,2661,,2344,"beidv","III.2353.462.28",,"PL","F","ACC","3+3","PL+PL","Ø+Ø","I+I","DIA-KO","ú",0,0,0,0,,,"t>c",2,0,"attributive",2353,,1296,"Basel","47.55814","7.58769"
2333,2663,"Otto [von Stoͮphen]","III.2375.475.09","3","SG","M","NOM","3","SG","M","A","NE",,,,1,2664,,2345,"beide","III.2375.475.09",,"SG","M","NOM","3+3","SG+SG","M+M","A+A","DIA-KO","e",0,1,0,0,,,"t>c",0,0,"attributive",2375,,1296,"Kloster St. Trudpert","47.8638","7.8032"
2333,2664,"Bertolt von Stoͮphen","III.2375.475.09","3","SG","M","NOM","3","SG","M","A","NE",,,,1,2663,,2345,"beide","III.2375.475.09",,"SG","M","NOM","3+3","SG+SG","M+M","A+A","DIA-KO","e",0,1,0,0,,,"t>c",2,0,"attributive",2375,,1296,"Kloster St. Trudpert","47.8638","7.8032"
2334,2665,"an gaichſlichem gerichte","III.2406.490.07",,,,,,,,,"APPR",,,,1,2666,"adverbial",2346,"baidv","III.2406.490.07",,,,,,,,,"DIA-KO","ú",0,1,0,0,,"syntactic","t>c",0,0,,2406,,1296,"Kloster Weingarten","47.80923","9.64478"
2334,2666,"an weltlichem [gerichte]","III.2406.490.07",,,,,,,,,"APPR",,,,1,2665,"adverbial",2346,"baidv","III.2406.490.07",,,,,,,,,"DIA-KO","ú",0,1,0,0,,"syntactic","t>c",4,0,,2406,,1296,"Kloster Weingarten","47.80923","9.64478"
2335,2667,"gab","III.2412.492.37","3","SG","F","NOM","3","SG","Ø","I","NA",,,,1,2668,"action",2347,"pediv","III.2412.492.37",,"SG","F","NOM","3+3","SG+SG","Ø+Ø","I+I","DIA-KO","iu",0,,0,0,,,"t>c",1,0,"attributive",2412,,1296,"Klosterneuburg","48.305","16.325"
2335,2668,"chavf","III.2412.492.37","3","SG","M","NOM","3","SG","Ø","I","NA",,,,1,2667,"action",2347,"pediv","III.2412.492.37",,"SG","F","NOM","3+3","SG+SG","Ø+Ø","I+I","DIA-KO","iu",0,0,0,0,,,"t>c",6,0,"attributive",2412,,1296,"Klosterneuburg","48.305","16.325"
2336,2669,"klinnen","III.2468.527.20",,"SG","N","DAT","3","SG","Ø","I","ADJN",,,,0,2670,"“ze Stainibach in dem dorf” (III.2468.527.20)",2348,"baidv","III.2468.527.20",,,,,"3+3","SG+SG","Ø+Ø","I+I","DIA-KO","ú",0,0,0,0,,"syntactic","t>c",0,0,"attributive",2468,,1296,"Kloster Weingarten","47.80923","9.64478"
2336,2670,"grozzen","III.2468.527.20",,"SG","N","DAT","3","SG","Ø","I","ADJN",,,,0,2669,"“ze Stainibach in dem dorf” (III.2468.527.20)",2348,"baidv","III.2468.527.20",,,,,"3+3","SG+SG","Ø+Ø","I+I","DIA-KO","ú",0,0,0,0,,"syntactic","t>c",2,0,"attributive",2468,,1296,"Kloster Weingarten","47.80923","9.64478"
2337,2671,"geſuͦcht","III.2532.564.33",,"SG","M","DAT","3","SG","Ø","I","ADJN",,,,0,2672,"“mit deſ rat/M.SG.DAT vn̄ mit deſ willen/M.SG.DAT” (III.2532.564.32)",2349,"paidiu","III.2532.564.33",,,,,"3+3","SG+SG","Ø+Ø","I+I","DIA-KO","iu",0,0,0,0,,"syntactic","t>c",0,0,"attributive",2532,,1296,"Gurk (Kärnten)","46.875277777778","14.288888888889"
2337,2672,"vngeſuͦcht","III.2532.564.33",,"SG","M","DAT","3","SG","Ø","I","ADJN",,,,0,2671,"“mit deſ rat/M.SG.DAT vn̄ mit deſ willen/M.SG.DAT” (III.2532.564.32)",2349,"paidiu","III.2532.564.33",,,,,"3+3","SG+SG","Ø+Ø","I+I","DIA-KO","iu",0,0,0,0,,"syntactic","t>c",2,0,"attributive",2532,,1296,"Gurk (Kärnten)","46.875277777778","14.288888888889"
2338,2673,"von mir ſelb","III.2532.564.37",,,,,,,,,"APPR",,,,1,2674,"adverbial",2350,"paideu","III.2532.564.37",,,,,,,,,"DIA-KO","iu",0,0,0,0,,"syntactic","t>c",0,0,,2532,,1296,"Gurk (Kärnten)","46.875277777778","14.288888888889"
2338,2674,"von den ichz chauft hiet","III.2532.564.37",,,,,,,,,"APPR",,,,1,2673,"adverbial",2350,"paideu","III.2532.564.37",,,,,,,,,"DIA-KO","iu",0,0,0,0,,"syntactic","t>c",2,0,,2532,,1296,"Gurk (Kärnten)","46.875277777778","14.288888888889"
2339,2675,"fûr ſchaden","IV.2713.093.25",,,,,,,,,"APPR",,,,1,2676,"adverbial",2351,"beide","IV.2713.093.25",,,,,,,,,"DIA-KO","e",0,0,0,0,,"syntactic","t>c",0,0,,2713,,1297,"Freiburg im Breisgau","47.994828","7.849881"
2339,2676,"[fûr] hoͮbetguͦt","IV.2713.093.25",,,,,,,,,"APPR",,,,1,2675,"adverbial",2351,"beide","IV.2713.093.25",,,,,,,,,"DIA-KO","e",0,0,0,0,,"syntactic","t>c",3,0,,2713,,1297,"Freiburg im Breisgau","47.994828","7.849881"
2340,2677,"[gerihtes]","IV.2713.093.29","3","SG","N","GEN","3","SG","Ø","I","NA",,,,1,2678,"committee noun?; ellipsis",2352,"beide","IV.2713.093.29",,"SG","N","GEN","3+3","SG+SG","Ø+Ø","I+I","DIA-KO","e",0,,0,0,,,"t>c",1,0,"attributive",2713,,1297,"Freiburg im Breisgau","47.994828","7.849881"
2340,2678,"gerihtes","IV.2713.093.29","3","SG","N","GEN","3","SG","Ø","I","NA",,,,1,2677,"committee noun?; ellipsis",2353,"beide","IV.2713.093.29",,"SG","N","GEN","3+3","SG+SG","Ø+Ø","I+I","DIA-KO","e",0,0,0,0,,,"t>c",3,0,"attributive",2713,,1297,"Freiburg im Breisgau","47.994828","7.849881"
2341,2679,"wir","IV.2862.187.20","1","PL","Ø","NOM","1","SG","M","A","PPER",,,,1,2680,"“Cvonrat der herre von Liehtenberg” (IV.2862.187.05); plural maiestatis",2354,"bede","IV.2862.187.20",,"PL","Ø","NOM","1+3","SG+PL","M+M","A+A","DIA-KO","e",0,,0,0,,,"t>c",0,0,"attributive",2862,,1297,"Burg Lichtenberg (Elsass)","48.921111111111","7.4872222222222"
2341,2680,"lúte","IV.2862.187.20","3","PL","M","NOM","3","PL","M","A","NA",,,,1,2679,"group of men (named individually in IV.2862.187.06-08)",2354,"bede","IV.2862.187.20",,"PL","Ø","NOM","1+3","SG+PL","M+M","A+A","DIA-KO","e",0,0,0,0,,,"t>c",4,0,"attributive",2862,,1297,"Burg Lichtenberg (Elsass)","48.921111111111","7.4872222222222"
2342,2681,"wir","IV.2862.187.22","1","PL","Ø","NOM","1","SG","M","A","PPER",,,,1,2682,"“Cvonrat der herre von Liehtenberg” (IV.2862.187.05); plural maiestatis",2355,"bede","IV.2862.187.22",,"PL","Ø","NOM","1+3","SG+PL","M+M","A+A","DIA-KO","e",0,,0,0,,,"t>c",0,0,"attributive",2862,,1297,"Burg Lichtenberg (Elsass)","48.921111111111","7.4872222222222"
2342,2682,"lúte","IV.2862.187.23","3","PL","M","NOM","3","PL","M","A","NA",,,,1,2681,"group of men (named individually in IV.2862.187.06-08)",2355,"bede","IV.2862.187.22",,"PL","Ø","NOM","1+3","SG+PL","M+M","A+A","DIA-KO","e",0,0,0,0,,,"t>c",4,0,"attributive",2862,,1297,"Burg Lichtenberg (Elsass)","48.921111111111","7.4872222222222"
2343,2683,"geiſtliches","IV.2862.187.25",,"SG","M","GEN","3","SG","Ø","I","ADJN",,,,0,2684,"“ſchirmeſ” (IV.2862.187.25)",2356,"bede","IV.2862.187.25",,,,,"3+3","SG+SG","Ø+Ø","I+I","DIA-KO","e",0,0,0,0,,"syntactic","t>c",0,0,"attributive",2862,,1297,"Burg Lichtenberg (Elsass)","48.921111111111","7.4872222222222"
2343,2684,"weltliches","IV.2862.187.25",,"SG","M","GEN","3","SG","Ø","I","ADJN",,,,0,2683,"“ſchirmeſ” (IV.2862.187.25)",2356,"bede","IV.2862.187.25",,,,,"3+3","SG+SG","Ø+Ø","I+I","DIA-KO","e",0,0,0,0,,"syntactic","t>c",2,0,"attributive",2862,,1297,"Burg Lichtenberg (Elsass)","48.921111111111","7.4872222222222"
2344,2685,"an brvͦdere","IV.2866.189.28",,,,,,,,,"APPR",,,,1,2686,"adverbial",2357,"beide","IV.2866.189.28",,,,,,,,,"DIA-KO","e",0,1,0,0,,"syntactic","t>c",0,0,,2866,,1297,"Colmar","48.081111111111","7.355"
2344,2686,"an ſweſtere","IV.2866.189.28",,,,,,,,,"APPR",,,,1,2685,"adverbial",2357,"beide","IV.2866.189.28",,,,,,,,,"DIA-KO","e",0,1,0,0,,"syntactic","t>c",3,0,,2866,,1297,"Colmar","48.081111111111","7.355"
2345,2687,"liͤvtte","IV.2913.212.25","3","PL","M","ACC","3","PL","*","A","NA",,,,1,2688,"generic",2358,"beidv","IV.2913.212.25",,"PL","M","ACC","3+3","PL+PL","M+Ø","A+I","DIA-KO","ú",0,,0,0,,,"t>c",0,0,"attributive",2913,,1298,"Zwiefalten","48.2325","9.4641666666667"
2345,2688,"gvͦt","IV.2913.212.25","3","PL","N","ACC","3","PL","Ø","I","NA",,,,1,2687,,2358,"beidv","IV.2913.212.25",,"PL","M","ACC","3+3","PL+PL","M+Ø","A+I","DIA-KO","ú",0,0,0,0,,,"t>c",2,0,"attributive",2913,,1298,"Zwiefalten","48.2325","9.4641666666667"
2346,2689,"Einwige","IV.2925.219.34","3","SG","M","DAT","3","SG","M","A","NE",,,,1,2690,,2359,"beidiu","IV.2925.219.34",,"SG","M","DAT","3+3","SG+SG","M+Ø","A+I","DIA-KO","iu",0,1,0,0,,,"t>c",0,0,"attributive",2925,,1298,"Landshut","48.537222222222","12.152222222222"
2346,2690,"kloͤſter","IV.2925.219.34","3","SG","N","DAT","3","SG","Ø","I","NA",,,,1,2689,,2359,"beidiu","IV.2925.219.34",,"SG","M","DAT","3+3","SG+SG","M+Ø","A+I","DIA-KO","iu",0,1,0,0,,,"t>c",4,0,"attributive",2925,,1298,"Landshut","48.537222222222","12.152222222222"
2348,2691,"vrowen","IV.3049.295.39","3","PL","F","GEN","3","PL","F","A","NA",,,,1,2692,,2360,"beidú","IV.3049.295.39",,"PL","F","GEN","3+3","PL+PL","F+M","A+A","DIA-KO","ú",0,,0,0,,,"t>c",1,0,"attributive",3049,,1298,"Zürich","47.37174","8.54226"
2348,2692,"herren","IV.3049.295.40","3","PL","M","GEN","3","PL","M","A","NA",,,,1,2691,,2360,"beidú","IV.3049.295.39",,"PL","F","GEN","3+3","PL+PL","F+M","A+A","DIA-KO","ú",0,0,0,0,,,"t>c",5,0,"attributive",3049,,1298,"Zürich","47.37174","8.54226"
2349,2693,"allen","IV.3062.309.32","3","PL","Ø","DAT","3","PL","*","A","NA",,,,1,,"generic (DI>NA); ellipsis",2361,"di","IV.3062.309.33","3","PL","Ø","ACC","3","PL","*","A","DRELS","Ø",0,0,1,,2694,"(M+F)+(M+F)","c>t",10,2,"phoric",3062,,1298,"Kloster Zwettl","48.616944444444","15.2"
2349,2694,"di","IV.3062.309.33","3","PL","Ø","ACC","3","PL","*","A","DRELS","Ø",0,0,0,2695,"relative clause (“di nu lewent”); ellipsis",2362,"baide","IV.3062.309.33",,"PL","Ø","ACC","3+3","PL+PL","*+*","A+A","DIA-KO","e",0,0,0,0,,"(M+F)+(M+F)","t>c",0,0,"attributive",3062,,1298,"Kloster Zwettl","48.616944444444","15.2"
2349,2693,"allen","IV.3062.309.32","3","PL","Ø","DAT","3","PL","*","A","NA",,,,1,,"generic (DI>NA); ellipsis",2363,"[di]","IV.3062.309.33","3","PL","Ø","ACC","3","PL","*","A","DRELS","Ø",0,0,1,,2695,"(M+F)+(M+F)","c>t",14,2,"phoric",3062,,1298,"Kloster Zwettl","48.616944444444","15.2"
2349,2695,"[di]","IV.3062.309.33","3","PL","Ø","ACC","3","PL","*","A","DRELS","Ø",0,0,0,2694,"relative clause (“[di] her nach chunftich ſint”); ellipsis",2362,"baide","IV.3062.309.33",,"PL","Ø","ACC","3+3","PL+PL","*+*","A+A","DIA-KO","e",0,0,0,0,,"(M+F)+(M+F)","t>c",4,0,"attributive",3062,,1298,"Kloster Zwettl","48.616944444444","15.2"
2350,2696,"erben","IV.3104.330.21","3","PL","M","DAT","3","PL","M+F","A","NA",,,,1,,"ellipsis",2364,"diͤ","IV.3104.330.21","3","PL","?","DAT","3","PL","*","A","DRELS","e",0,0,1,,2697,,"c>t",1,2,"phoric",3104,,1298,"Brixen","46.713611111111","11.656388888889"
2350,2697,"diͤ","IV.3104.330.21","3","PL","?","DAT","3","PL","*","A","DRELS","e",0,0,0,2698,"relative clause; ellipsis",2365,"peidev","IV.3104.330.21",,"PL","?","DAT","3+3","PL+PL","*+*","A+A","DIA-KO","iu",0,,0,0,,"(M+F)+(M+F)","t>c",0,0,"attributive",3104,,1298,"Brixen","46.713611111111","11.656388888889"
2350,2696,"erben","IV.3104.330.21","3","PL","M","DAT","3","PL","M+F","A","NA",,,,1,,"ellipsis",2366,"[diͤ]","IV.3104.330.22","3","PL","?","DAT","3","PL","*","A","DRELS","e",0,0,1,,2698,,"c>t",6,2,"phoric",3104,,1298,"Brixen","46.713611111111","11.656388888889"
2350,2698,"[diͤ]","IV.3104.330.22","3","PL","?","DAT","3","PL","*","A","DRELS","e",0,0,0,2697,"relative clause; “[di ſi] noch gewinnet”; ellipsis",2365,"peidev","IV.3104.330.21",,"PL","?","DAT","3+3","PL+PL","*+*","A+A","DIA-KO","iu",0,0,0,0,,"(M+F)+(M+F)","t>c",5,0,"attributive",3104,,1298,"Brixen","46.713611111111","11.656388888889"
2351,2699,"klein","IV.3130.345.38",,"SG","M","ACC","3","SG","Ø","I","ADJN",,,,0,2700,"“Zehenden” (IV.3130.345.37)",2367,"beidiv","IV.3130.345.38",,,,,"3+3","SG+SG","Ø+Ø","I+I","DIA-KO","iu",0,0,0,0,,"syntactic","t>c",0,0,"attributive",3130,,1298,"Bamberg","49.891666666667","10.891666666667"
2351,2700,"groz","IV.3130.345.38",,"SG","M","ACC","3","SG","Ø","I","ADJN",,,,0,2699,"“Zehenden” (IV.3130.345.37)",2367,"beidiv","IV.3130.345.38",,,,,"3+3","SG+SG","Ø+Ø","I+I","DIA-KO","iu",0,0,0,0,,"syntactic","t>c",2,0,"attributive",3130,,1298,"Bamberg","49.891666666667","10.891666666667"
2352,2701,"an werde","IV.3147.355.37",,,,,,,,,"APPR",,,,1,2702,"adverbial",2368,"paidev","IV.3147.355.37",,,,,,,,,"DIA-KO","iu",0,1,0,0,,"syntactic","t>c",0,0,,3147,,1298,"Brixen","46.713611111111","11.656388888889"
2352,2702,"an peraitſchaft","IV.3147.355.37",,,,,,,,,"APPR",,,,1,2701,"adverbial",2368,"paidev","IV.3147.355.37",,,,,,,,,"DIA-KO","iu",0,1,0,0,,"syntactic","t>c",3,0,,3147,,1298,"Brixen","46.713611111111","11.656388888889"
2353,2703,"zv Dorfe","IV.3319.461.28",,,,,,,,,"APPR",,,,1,2704,"local adverbial",2369,"baidev","IV.3319.461.28",,,,,,,,,"DIA-KO","iu",0,0,0,0,,"syntactic","t>c",0,0,,3319,,1299,"Michelstetten","48.587222222222","16.494444444444"
2353,2704,"ze velde","IV.3319.461.28",,,,,,,,,"APPR",,,,1,2703,"local adverbial",2369,"baidev","IV.3319.461.28",,,,,,,,,"DIA-KO","iu",0,0,0,0,,"syntactic","t>c",3,0,,3319,,1299,"Michelstetten","48.587222222222","16.494444444444"
2354,2705,"Jch","IV.3330.467.30","1","SG","Ø","NOM","1","SG","M","A","PPER",,,,1,2707,"“Chvͦnrat Pvͤtelpeckk” (IV.3330.467.26)",2370,"peyde","IV.3330.467.30",,"SG","Ø","NOM","1+3","SG+SG","M+M","A+A","DIA-KO","e",0,1,0,0,,,"t>c",0,0,"attributive",3330,,1299,"Freising","48.402777777778","11.748888888889"
2354,2706,"veter","IV.3330.467.30","3","SG","M","NOM","3","SG","M","A","NA",,,,1,,,2371,"er","IV.3330.467.30","3","SG","M","NOM","3","SG","M","A","PPER",,,,1,,2707,,"t>c",1,2,"phoric",3330,,1299,"Freising","48.402777777778","11.748888888889"
2354,2707,"er","IV.3330.467.30","3","SG","M","NOM","3","SG","M","A","PPER",,,,0,2705,,2370,"peyde","IV.3330.467.30",,"SG","Ø","NOM","1+3","SG+SG","M+M","A+A","DIA-KO","e",0,1,0,0,,,"t>c",3,0,"attributive",3330,,1299,"Freising","48.402777777778","11.748888888889"
2355,2708,"ze holtz","IV.3332.468.38",,,,,,,,,"APPR",,,,1,2709,"tripartite? (“paide ze holtz · ze velde · vnd ze dorf”, IV.3332.468.38); local adverbial",2372,"paide","IV.3332.468.38",,,,,,,,,"DIA-KO","e",0,0,0,0,,"syntactic","t>c",0,0,,3332,,1299,"Wien","48.208330230278","16.373063840833"
2355,2709,"ze velde","IV.3332.468.38",,,,,,,,,"APPR",,,,1,2708,"tripartite? (“paide ze holtz · ze velde · vnd ze dorf”, IV.3332.468.38); local adverbial",2372,"paide","IV.3332.468.38",,,,,,,,,"DIA-KO","e",0,0,0,0,,"syntactic","t>c",2,0,,3332,,1299,"Wien","48.208330230278","16.373063840833"
2356,2710,"geſuͦcht","IV.3339.472.42",,"SG","?","DAT","3","SG","?","?","ADJN",,,,0,2711,"“levt/DAT.M.SG[*.A.PL] vnd guͤt/DAT.N.SG[Ø.I.SG]” (IV.3339.472.42)",2373,"beid","IV.3339.472.42",,,,,"3+3","SG+SG","?+?","?+?","DIA-KO","Ø",0,0,0,0,,"syntactic","t>c",0,0,"attributive",3339,,1299,"Niederrasen","46.85","12.1"
2356,2711,"vngeſuͦcht","IV.3339.472.42",,"SG","?","DAT","3","SG","?","?","ADJN",,,,0,2710,"“levt/DAT.M.SG[*.A.PL] vnd guͤt/DAT.N.SG[Ø.I.SG]” (IV.3339.472.42)",2373,"beid","IV.3339.472.42",,,,,"3+3","SG+SG","?+?","?+?","DIA-KO","Ø",0,0,0,0,,"syntactic","t>c",2,0,"attributive",3339,,1299,"Niederrasen","46.85","12.1"
2357,2712,"wein","IV.3346.476.34","3","SG","M","ACC","3","SG","Ø","I","NA",,,,1,2713,,2374,"paide","IV.3346.476.34",,"SG","M","ACC","3+3","SG+PL","Ø+Ø","I+I","DIA-KO","e",0,,0,0,,,"t>c",0,0,"attributive",3346,,1299,"Wien","48.208330230278","16.373063840833"
2357,2713,"phenninge","IV.3346.476.34","3","PL","M","ACC","3","PL","Ø","I","NA",,,,1,2712,,2374,"paide","IV.3346.476.34",,"SG","M","ACC","3+3","SG+PL","Ø+Ø","I+I","DIA-KO","e",0,0,0,0,,,"t>c",2,0,"attributive",3346,,1299,"Wien","48.208330230278","16.373063840833"
2358,2714,"frawen","IV.3397.503.28","3","PL","F","NOM","3","PL","F","A","NA",,,,1,2715,,2375,"beidiv","IV.3397.503.28",,"PL","F","NOM","3+3","PL+PL","F+M","A+A","DIA-KO","iu",0,,0,0,,,"t>c",0,0,"attributive",3397,,1299,"Regensburg","49.017222222222","12.096944444444"
2358,2715,"man","IV.3397.503.28","3","PL","M","NOM","3","PL","M","A","NA",,,,1,2714,,2375,"beidiv","IV.3397.503.28",,"PL","F","NOM","3+3","PL+PL","F+M","A+A","DIA-KO","iu",0,0,0,0,,,"t>c",2,0,"attributive",3397,,1299,"Regensburg","49.017222222222","12.096944444444"
2359,2716,"ekker","IV.3428.525.10","3","PL","M","ACC","3","PL","Ø","I","NA",,,,1,2717,,2376,"beide","IV.3428.525.10",,"PL","M","ACC","3+3","PL+PL","Ø+Ø","I+I","DIA-KO","e",0,1,0,0,,,"t>c",0,0,"attributive",3428,,1299,"Kloster Seligenporten","49.2654","11.3082"
2359,2717,"wiſen","IV.3428.525.11","3","PL","F","ACC","3","PL","Ø","I","NA",,,,1,2716,,2376,"beide","IV.3428.525.10",,"PL","M","ACC","3+3","PL+PL","Ø+Ø","I+I","DIA-KO","e",0,1,0,0,,,"t>c",2,0,"attributive",3428,,1299,"Kloster Seligenporten","49.2654","11.3082"
2360,2718,"ritre","IV.3451.539.15","3","PL","M","NOM","3","PL","M","A","NA",,,,1,2719,,2377,"beide","IV.3451.539.15",,"PL","M","NOM","3+3","PL+PL","M+M","A+A","DIA-KO","e",0,,0,0,,,"t>c",0,0,"attributive",3451,"wmd.",1299,"Rüdigheim (Amöneburg)","50.781111111111","8.9522222222222"
2360,2719,"knethe","IV.3451.539.15","3","PL","M","NOM","3","PL","M","A","NA",,,,1,2718,,2377,"beide","IV.3451.539.15",,"PL","M","NOM","3+3","PL+PL","M+M","A+A","DIA-KO","e",0,0,0,0,,,"t>c",2,0,"attributive",3451,"wmd.",1299,"Rüdigheim (Amöneburg)","50.781111111111","8.9522222222222"
2361,2720,"von vnſer vater","IV.3536.598.34",,,,,,,,,"APPR",,,,1,2721,"tripartite? (“baidev von vnſer vater vn̄ von vnſerm vetern vn̄ von andern biderben leuten”, IV.3536.598.34); adverbial",2378,"baidev","IV.3536.598.34",,,,,,,,,"DIA-KO","iu",0,0,0,0,,"syntactic","t>c",0,0,,3536,,1299,"Salzburg","47.8","13.033333333333"
2361,2721,"von vnſerm vetern","IV.3536.598.34",,,,,,,,,"APPR",,,,1,2720,"tripartite? (“baidev von vnſer vater vn̄ von vnſerm vetern vn̄ von andern biderben leuten”, IV.3536.598.34); adverbial",2378,"baidev","IV.3536.598.34",,,,,,,,,"DIA-KO","iu",0,0,0,0,,"syntactic","t>c",4,0,,3536,,1299,"Salzburg","47.8","13.033333333333"
2362,2722,"in vnſeme Lande","I.69A.105.21",,,,,,,,,"APPR",,,,1,2723,"local adverbial",2379,"beide","I.69A.105.21",,,,,,,,,"DIA-KO","e",0,1,0,0,,"syntactic","t>c",0,0,,"69-A","wmd.",1263,"Köln","50.938055555556","6.9569444444444"
2362,2723,"endirſwa","I.69A.105.21",,,,,,,,,"AVD",,,,1,2722,"local adverbial",2379,"beide","I.69A.105.21",,,,,,,,,"DIA-KO","e",0,1,0,0,,"syntactic","t>c",4,0,,"69-A","wmd.",1263,"Köln","50.938055555556","6.9569444444444"
2363,2724,"in vnſeme Lande","I.72B.111.23",,,,,,,,,"APPR",,,,1,2725,"local adverbial",2380,"beide","I.72B.111.23",,,,,,,,,"DIA-KO","e",0,1,0,0,,"syntactic","t>c",0,0,,"72-B","wmd.",1263,"Köln","50.938055555556","6.9569444444444"
2363,2725,"andirſwa","I.72B.111.23",,,,,,,,,"AVD",,,,1,2724,"local adverbial",2380,"beide","I.72B.111.23",,,,,,,,,"DIA-KO","e",0,1,0,0,,"syntactic","t>c",4,0,,"72-B","wmd.",1263,"Köln","50.938055555556","6.9569444444444"
2364,2726,"Arm","II.1126A.415.13",,"PL","M","NOM","3","PL","*","A","ADJN",,,,0,2727,"“burger” (II.1126A.415.13); generic",2381,"beide","II.1126A.415.13",,,,,"3+3","PL+PL","*+*","A+A","DIA-KO","e",0,1,0,0,,"syntactic","t>c",0,0,"attributive","1126-A",,1289,"Würzburg","49.794444444444","9.9294444444444"
2364,2727,"riche","II.1126A.415.13",,"PL","M","NOM","3","PL","*","A","ADJN",,,,0,2726,"“burger” (II.1126A.415.13); generic",2381,"beide","II.1126A.415.13",,,,,"3+3","PL+PL","*+*","A+A","DIA-KO","e",0,0,0,0,,"syntactic","t>c",2,0,"attributive","1126-A",,1289,"Würzburg","49.794444444444","9.9294444444444"
2365,2728,"Arm","II.1126A.415.18","3","SG","M","NOM","3","PL","*","A","NA",,,,1,2729,"generic (ADJS>NA)",2382,"beide","II.1126A.415.18",,"SG","M","NOM","3+3","PL+PL","*+*","A+A","DIA-KO","e",0,1,0,0,,"(M+F)+(M+F)","t>c",0,0,"attributive","1126-A",,1289,"Würzburg","49.794444444444","9.9294444444444"
2365,2729,"riche","II.1126A.415.19","3","SG","M","NOM","3","PL","*","A","NA",,,,1,2728,"generic (ADJS>NA)",2382,"beide","II.1126A.415.18",,"SG","M","NOM","3+3","PL+PL","*+*","A+A","DIA-KO","e",0,1,0,0,,"(M+F)+(M+F)","t>c",2,0,"attributive","1126-A",,1289,"Würzburg","49.794444444444","9.9294444444444"
2366,2730,"Armen","II.1126B.414.47","3","PL","M","DAT","3","PL","*","A","NA",,,,1,2731,"generic (ADJS>NA)",2383,"beide","II.1126B.414.47",,"PL","M","DAT","3+3","PL+PL","*+*","A+A","DIA-KO","e",0,1,0,0,,"(M+F)+(M+F)","t>c",0,0,"attributive","1126-B",,1289,"Würzburg","49.794444444444","9.9294444444444"
2366,2731,"richen","II.1126B.414.48","3","PL","M","DAT","3","PL","*","A","NA",,,,1,2730,"generic (ADJS>NA)",2383,"beide","II.1126B.414.47",,"PL","M","DAT","3+3","PL+PL","*+*","A+A","DIA-KO","e",0,1,0,0,,"(M+F)+(M+F)","t>c",2,0,"attributive","1126-B",,1289,"Würzburg","49.794444444444","9.9294444444444"
2367,2732,"Arme","II.1126B.415.15",,"PL","M","NOM","3","PL","*","A","ADJN",,,,0,2733,"“burgere” (II.1126B.415.15); generic",2384,"beide","II.1126B.415.15",,,,,"3+3","PL+PL","*+*","A+A","DIA-KO","e",0,1,0,0,,"syntactic","t>c",0,0,"attributive","1126-B",,1289,"Würzburg","49.794444444444","9.9294444444444"
2367,2733,"riche","II.1126B.415.15",,"PL","M","NOM","3","PL","*","A","ADJN",,,,0,2732,"“burgere” (II.1126B.415.15); generic",2384,"beide","II.1126B.415.15",,,,,"3+3","PL+PL","*+*","A+A","DIA-KO","e",0,0,0,0,,"syntactic","t>c",2,0,"attributive","1126-B",,1289,"Würzburg","49.794444444444","9.9294444444444"
2368,2734,"fur vns","III.1972A.226.20",,,,,,,,,"APPR",,,,1,2735,"adverbial",2385,"beidiv","III.1972A.226.20",,,,,,,,,"DIA-KO","iu",0,0,0,0,,"syntactic","t>c",0,0,,"1972-A",,1294,"Nürnberg","49.455555555556","11.078611111111"
2368,2735,"fur alle vnſer Erben","III.1972A.226.20",,,,,,,,,"APPR",,,,1,2734,"adverbial",2385,"beidiv","III.1972A.226.20",,,,,,,,,"DIA-KO","iu",0,0,0,0,,"syntactic","t>c",3,0,,"1972-A",,1294,"Nürnberg","49.455555555556","11.078611111111"
2369,2736,"chleinen","IV.2625A.042.23",,"SG","M","ACC","3","SG","Ø","I","ADJN",,,,0,2737,"“zehenten” (IV.2625A.042.22)",2386,"peideu","IV.2625A.042.23",,,,,"3+3","SG+SG","Ø+Ø","I+I","DIA-KO","iu",0,0,0,0,,"syntactic","t>c",0,0,"attributive","2625-A",,1297,"Engelthal","49.471904","11.398453"
2369,2737,"groſzen","IV.2625A.042.23",,"SG","M","ACC","3","SG","Ø","I","ADJN",,,,0,2736,"“zehenten” (IV.2625A.042.22)",2386,"peideu","IV.2625A.042.23",,,,,"3+3","SG+SG","Ø+Ø","I+I","DIA-KO","iu",0,0,0,0,,"syntactic","t>c",2,0,"attributive","2625-A",,1297,"Engelthal","49.471904","11.398453"
2370,2738,"chlainen","IV.2625B.042.23",,"SG","M","ACC","3","SG","Ø","I","ADJN",,,,0,2739,"“zehenten” (IV.2625B.042.22)",2387,"peidev","IV.2625B.042.23",,,,,"3+3","SG+SG","Ø+Ø","I+I","DIA-KO","iu",0,0,0,0,,"syntactic","t>c",0,0,"attributive","2625-B",,1297,"Engelthal","49.471904","11.398453"
2370,2739,"groſzen","IV.2625B.042.23",,"SG","M","ACC","3","SG","Ø","I","ADJN",,,,0,2738,"“zehenten” (IV.2625B.042.22)",2387,"peidev","IV.2625B.042.23",,,,,"3+3","SG+SG","Ø+Ø","I+I","DIA-KO","iu",0,0,0,0,,"syntactic","t>c",2,0,"attributive","2625-B",,1297,"Engelthal","49.471904","11.398453"
2371,2740,"von dem hof","IV.2735A.106.38",,,,,,,,,"APPR",,,,1,2741,"adverbial",2388,"peidev","IV.2735A.106.38",,,,,,,,,"DIA-KO","iu",0,0,0,0,,"syntactic","t>c",0,0,,"2735-A",,1297,"Brixen","46.713611111111","11.656388888889"
2371,2741,"von dem zehenten","IV.2735A.106.38",,,,,,,,,"APPR",,,,1,2740,"adverbial",2388,"peidev","IV.2735A.106.38",,,,,,,,,"DIA-KO","iu",0,0,0,0,,"syntactic","t>c",4,0,,"2735-A",,1297,"Brixen","46.713611111111","11.656388888889"
2372,2742,"an vrbor","IV.2735A.107.30",,,,,,,,,"APPR",,,,1,2743,"adverbial",2389,"peidev","IV.2735A.107.29",,,,,,,,,"DIA-KO","iu",0,1,0,0,,"syntactic","t>c",0,0,,"2735-A",,1297,"Brixen","46.713611111111","11.656388888889"
2372,2743,"an andrem guͤt","IV.2735A.107.30",,,,,,,,,"APPR",,,,1,2742,"adverbial",2389,"peidev","IV.2735A.107.29",,,,,,,,,"DIA-KO","iu",0,1,0,0,,"syntactic","t>c",3,0,,"2735-A",,1297,"Brixen","46.713611111111","11.656388888889"
2373,2744,"von dem hof","IV.2735B.106.37",,,,,,,,,"APPR",,,,1,2745,"adverbial",2390,"peidev","IV.2735B.106.37",,,,,,,,,"DIA-KO","iu",0,0,0,0,,"syntactic","t>c",0,0,,"2735-B",,1297,"Brixen","46.713611111111","11.656388888889"
2373,2745,"von dem zehenten","IV.2735B.106.38",,,,,,,,,"APPR",,,,1,2744,"adverbial",2390,"peidev","IV.2735B.106.37",,,,,,,,,"DIA-KO","iu",0,0,0,0,,"syntactic","t>c",4,0,,"2735-B",,1297,"Brixen","46.713611111111","11.656388888889"
2374,2746,"an vrbor","IV.2735B.107.04",,,,,,,,,"APPR",,,,1,2747,"adverbial",2391,"peidev","IV.2735B.107.04",,,,,,,,,"DIA-KO","iu",0,1,0,0,,"syntactic","t>c",0,0,,"2735-B",,1297,"Brixen","46.713611111111","11.656388888889"
2374,2747,"[an] andrem guͦt","IV.2735B.107.04",,,,,,,,,"APPR",,,,1,2746,"adverbial",2391,"peidev","IV.2735B.107.04",,,,,,,,,"DIA-KO","iu",0,1,0,0,,"syntactic","t>c",3,0,,"2735-B",,1297,"Brixen","46.713611111111","11.656388888889"
2375,2748,"an vrbor","IV.2735B.107.29",,,,,,,,,"APPR",,,,1,2749,"adverbial",2392,"peidev","IV.2735B.107.29",,,,,,,,,"DIA-KO","iu",0,1,0,0,,"syntactic","t>c",0,0,,"2735-B",,1297,"Brixen","46.713611111111","11.656388888889"
2375,2749,"[an] andrem guͦt","IV.2735B.107.29",,,,,,,,,"APPR",,,,1,2748,"adverbial",2392,"peidev","IV.2735B.107.29",,,,,,,,,"DIA-KO","iu",0,1,0,0,,"syntactic","t>c",3,0,,"2735-B",,1297,"Brixen","46.713611111111","11.656388888889"
2376,2750,"von den Chorherren","IV.3224A.400.11",,,,,,,,,"APPR",,,,1,2750,"adverbial",2393,"paidiv","IV.3224A.400.11",,,,,,,,,"DIA-KO","iu",0,0,0,0,,"syntactic","t>c",0,0,,"3224-A",,1299,"Freising","48.402777777778","11.748888888889"
2376,2751,"von den ſlehen","IV.3224A.400.11",,,,,,,,,"APPR",,,,1,2750,"adverbial",2393,"paidiv","IV.3224A.400.11",,,,,,,,,"DIA-KO","iu",0,0,0,0,,"syntactic","t>c",4,0,,"3224-A",,1299,"Freising","48.402777777778","11.748888888889"
2377,2752,"von den / chorherren","IV.3224B.400.11",,,,,,,,,"APPR",,,,1,2753,"adverbial",2394,"paidiv","IV.3224B.400.11",,,,,,,,,"DIA-KO","iu",0,0,0,0,,"syntactic","t>c",0,0,,"3224-B",,1299,"Freising","48.402777777778","11.748888888889"
2377,2753,"von de slehen","IV.3224B.400.11",,,,,,,,,"APPR",,,,1,2752,"adverbial",2394,"paidiv","IV.3224B.400.11",,,,,,,,,"DIA-KO","iu",0,0,0,0,,"syntactic","t>c",4,0,,"3224-B",,1299,"Freising","48.402777777778","11.748888888889"
2378,2754,"armen","V.N2A.001.40","3","PL","M","ACC","3","PL","*","A","NA",,,,1,2755,"generic (ADJS>NA)",2395,"beide","V.N2A.001.40",,"PL","M","ACC","3+3","PL+PL","*+*","A+A","DIA-KO","e",0,1,0,0,,"(M+F)+(M+F)","t>c",0,0,"attributive","N-2-A-54-b",,1261,"Straßburg","48.583611111111","7.7480555555556"
2378,2755,"riche","V.N2A.001.40","3","PL","M","ACC","3","PL","*","A","NA",,,,1,2754,"generic (ADJS>NA)",2395,"beide","V.N2A.001.40",,"PL","M","ACC","3+3","PL+PL","*+*","A+A","DIA-KO","e",0,1,0,0,,"(M+F)+(M+F)","t>c",2,0,"attributive","N-2-A-54-b",,1261,"Straßburg","48.583611111111","7.7480555555556"
2379,2756,"in der ſtat","V.N2A.002.35",,,,,,,,,"APPR",,,,1,2757,"local adverbial",2396,"beide","V.N2A.002.35",,,,,,,,,"DIA-KO","e",0,1,0,0,,"syntactic","t>c",0,0,,"N-2-A-54-b",,1261,"Straßburg","48.583611111111","7.7480555555556"
2379,2757,"da vór","V.N2A.002.36",,,,,,,,,"AVD",,,,1,2756,"local adverbial",2396,"beide","V.N2A.002.35",,,,,,,,,"DIA-KO","e",0,1,0,0,,"syntactic","t>c",4,0,,"N-2-A-54-b",,1261,"Straßburg","48.583611111111","7.7480555555556"
2380,2758,"arm","V.N2A.004.17",,"PL","M","DAT","3","PL","*","A","ADJN",,,,0,2759,"“burgeren” (V.N2A.004.16); generic",2397,"beide","V.N2A.004.17",,,,,"3+3","PL+PL","*+*","A+A","DIA-KO","e",0,1,0,0,,"syntactic","t>c",0,0,"attributive","N-2-A-54-b",,1261,"Straßburg","48.583611111111","7.7480555555556"
2380,2759,"rich","V.N2A.004.17",,"PL","M","DAT","3","PL","*","A","ADJN",,,,0,2758,"“burgeren” (V.N2A.004.16); generic",2397,"beide","V.N2A.004.17",,,,,"3+3","PL+PL","*+*","A+A","DIA-KO","e",0,0,0,0,,"syntactic","t>c",2,0,"attributive","N-2-A-54-b",,1261,"Straßburg","48.583611111111","7.7480555555556"
2381,2760,"arm","V.N2B.001.40","3","PL","M","ACC","3","PL","*","A","NA",,,,1,2761,"generic (ADJS>NA)",2398,"beide","V.N2B.001.40",,"PL","M","ACC","3+3","PL+PL","*+*","A+A","DIA-KO","e",0,1,0,0,,"(M+F)+(M+F)","t>c",0,0,"attributive","N-2-B-54-b",,1261,"Straßburg","48.583611111111","7.7480555555556"
2381,2761,"riche","V.N2B.001.40","3","PL","M","ACC","3","PL","*","A","NA",,,,1,2760,"generic (ADJS>NA)",2398,"beide","V.N2B.001.40",,"PL","M","ACC","3+3","PL+PL","*+*","A+A","DIA-KO","e",0,1,0,0,,"(M+F)+(M+F)","t>c",2,0,"attributive","N-2-B-54-b",,1261,"Straßburg","48.583611111111","7.7480555555556"
2382,2762,"in der ſtat","V.N2B.002.36",,,,,,,,,"APPR",,,,1,2763,"local adverbial",2399,"beide","V.N2B.002.36",,,,,,,,,"DIA-KO","e",0,1,0,0,,"syntactic","t>c",0,0,,"N-2-B-54-b",,1261,"Straßburg","48.583611111111","7.7480555555556"
2382,2763,"da vor","V.N2B.002.36",,,,,,,,,"AVD",,,,1,2762,"local adverbial",2399,"beide","V.N2B.002.36",,,,,,,,,"DIA-KO","e",0,1,0,0,,"syntactic","t>c",4,0,,"N-2-B-54-b",,1261,"Straßburg","48.583611111111","7.7480555555556"
2383,2764,"arm","V.N2B.004.17",,"PL","M","DAT","3","PL","*","A","ADJN",,,,0,2765,"“burgeren” (V.N2A.004.16); generic",2400,"beide","V.N2B.004.17",,,,,"3+3","PL+PL","*+*","A+A","DIA-KO","e",0,1,0,0,,"syntactic","t>c",0,0,"attributive","N-2-B-54-b",,1261,"Straßburg","48.583611111111","7.7480555555556"
2383,2765,"rich","V.N2B.004.17",,"PL","M","DAT","3","PL","*","A","ADJN",,,,0,2764,"“burgeren” (V.N2A.004.16); generic",2400,"beide","V.N2B.004.17",,,,,"3+3","PL+PL","*+*","A+A","DIA-KO","e",0,0,0,0,,"syntactic","t>c",2,0,"attributive","N-2-B-54-b",,1261,"Straßburg","48.583611111111","7.7480555555556"
2384,2766,"wir","V.N11.010.39","1","PL","M","NOM","1","SG","M","A","PPER",,,,1,2767,"“Burkart der Spendere” (V.N11.010.33); plural maiestatis",2401,"beide","V.N11.010.39",,"PL","M","NOM","1+3","SG+SG","M+M","A+A","DIA-KO","e",0,,0,0,,,"t>c",0,0,"attributive","N-11-59",,1262,"Straßburg","48.583611111111","7.7480555555556"
2384,2767,"herre","V.N11.010.39","3","SG","M","NOM","3","SG","M","A","NA",,,,1,2766,"“biſchof” (V.N11.010.39)",2401,"beide","V.N11.010.39",,"PL","M","NOM","1+3","SG+SG","M+M","A+A","DIA-KO","e",0,0,0,0,,,"t>c",3,0,"attributive","N-11-59",,1262,"Straßburg","48.583611111111","7.7480555555556"
2385,2768,"von geiſtlicher [beſwerde]","V.N14.013.09",,,,,,,,,"APPR",,,,1,2769,"adverbial",2402,"beidv","V.N14.013.09",,,,,,,,,"DIA-KO","ú",0,0,0,0,,"syntactic","t>c",0,0,,"N-14-61-a",,1262,"Straßburg","48.583611111111","7.7480555555556"
2385,2769,"[von] wertlicher beſwerde","V.N14.013.09",,,,,,,,,"APPR",,,,1,2768,"adverbial",2402,"beidv","V.N14.013.09",,,,,,,,,"DIA-KO","ú",0,0,0,0,,"syntactic","t>c",3,0,,"N-14-61-a",,1262,"Straßburg","48.583611111111","7.7480555555556"
2386,2770,"in vͦnſeme lande","V.N36.025.31",,,,,,,,,"APPR",,,,1,2771,"local adverbial",2403,"beide","V.N36.025.31",,,,,,,,,"DIA-KO","e",0,1,0,0,,"syntactic","t>c",0,0,,"N-36-71-B","wmd.",1263,"Köln","50.938055555556","6.9569444444444"
2386,2771,"andirſwa","V.N36.025.31",,,,,,,,,"AVD",,,,1,2770,"local adverbial",2403,"beide","V.N36.025.31",,,,,,,,,"DIA-KO","e",0,1,0,0,,"syntactic","t>c",4,0,,"N-36-71-B","wmd.",1263,"Köln","50.938055555556","6.9569444444444"
2387,2772,"in vͦnſme lande","V.N68.048.11",,,,,,,,,"APPR",,,,1,2773,"local adverbial",2404,"beide","V.N68.048.11",,,,,,,,,"DIA-KO","e",0,1,0,0,,"syntactic","t>c",0,0,,"N-68-85-B","wmd.",1264,"Köln","50.938055555556","6.9569444444444"
2387,2773,"andirſwa","V.N68.048.12",,,,,,,,,"AVD",,,,1,2772,"local adverbial",2404,"beide","V.N68.048.11",,,,,,,,,"DIA-KO","e",0,1,0,0,,"syntactic","t>c",4,0,,"N-68-85-B","wmd.",1264,"Köln","50.938055555556","6.9569444444444"
2388,2774,"geiſtliches","V.N99.069.25",,"SG","N","GEN","3","SG","Ø","I","ADJN",,,,0,2775,"“rehteſ” (V.N99.069.25)",2405,"bede","V.N99.069.25",,,,,"3+3","SG+SG","Ø+Ø","I+I","DIA-KO","e",0,0,0,0,,"syntactic","t>c",0,0,"attributive","N-99-143-a",,1270,"Straßburg","48.583611111111","7.7480555555556"
2388,2775,"weltlicheſ","V.N99.069.25",,"SG","N","GEN","3","SG","Ø","I","ADJN",,,,0,2774,"“rehteſ” (V.N99.069.25)",2405,"bede","V.N99.069.25",,,,,"3+3","SG+SG","Ø+Ø","I+I","DIA-KO","e",0,0,0,0,,"syntactic","t>c",2,0,"attributive","N-99-143-a",,1270,"Straßburg","48.583611111111","7.7480555555556"
2389,2776,"teilvnge","V.N220.169.01","3","SG","F","ACC","3","SG","Ø","I","NA",,,,1,2777,"action; ellipsis",2406,"bede","V.N220.169.01",,"SG","F","ACC","3+3","SG+SG","Ø+Ø","I+I","DIA-KO","e",0,,0,0,,,"t>c",2,0,"attributive","N-220-550-a",,1282,"Dorlisheim","48.525","7.4858333333333"
2389,2777,"[teilvnge]","V.N220.169.01","3","SG","F","ACC","3","SG","Ø","I","NA",,,,1,2776,"action; ellipsis",2406,"bede","V.N220.169.01",,"SG","F","ACC","3+3","SG+SG","Ø+Ø","I+I","DIA-KO","e",0,0,0,0,,,"t>c",7,0,"attributive","N-220-550-a",,1282,"Dorlisheim","48.525","7.4858333333333"
2390,2778,"gaiſliche","V.N288.223.36",,"PL","M","NOM","3","PL","*","A","ADJN",,,,0,2779,"“liͮte” (V.N288.223.36); generic",2407,"baidiv","V.N288.223.36",,,,,"3+3","PL+PL","*+*","A+A","DIA-KO","iu",0,0,0,0,,"syntactic","t>c",0,0,"attributive","N-288-752-a",,1285,"Überlingen","47.766666666667","9.1583333333333"
2390,2779,"weltliche","V.N288.223.37",,"PL","M","NOM","3","PL","*","A","ADJN",,,,0,2778,"“liͮte” (V.N288.223.36); generic",2407,"baidiv","V.N288.223.36",,,,,"3+3","PL+PL","*+*","A+A","DIA-KO","iu",0,0,0,0,,"syntactic","t>c",2,0,"attributive","N-288-752-a",,1285,"Überlingen","47.766666666667","9.1583333333333"
2391,2780,"gaiſcliche","V.N294.227.11",,"PL","M","NOM","3","PL","*","A","ADJN",,,,0,2781,"“liͮte” (V.N294.227.11); generic",2408,"baidiv","V.N294.227.11",,,,,"3+3","PL+PL","*+*","A+A","DIA-KO","iu",0,0,0,0,,"syntactic","t>c",0,0,"attributive","N-294-762-a",,1285,"Überlingen","47.766666666667","9.1583333333333"
2391,2781,"weltliche","V.N294.227.11",,"PL","M","NOM","3","PL","*","A","ADJN",,,,0,2780,"“liͮte” (V.N294.227.11); generic",2408,"baidiv","V.N294.227.11",,,,,"3+3","PL+PL","*+*","A+A","DIA-KO","iu",0,0,0,0,,"syntactic","t>c",2,0,"attributive","N-294-762-a",,1285,"Überlingen","47.766666666667","9.1583333333333"
2392,2782,"arm","V.N321.245.20","3","PL","M","NOM","3","PL","*","A","NA",,,,1,2783,"generic (ADJS>NA)",2409,"beide","V.N321.245.20",,"PL","M","NOM","3+3","PL+PL","*+*","A+A","DIA-KO","e",0,1,0,0,,"(M+F)+(M+F)","t>c",0,0,"attributive","N-321-853-a",,1286,"Rosheim","48.496944444444","7.4694444444444"
2392,2783,"riche","V.N321.245.20","3","PL","M","NOM","3","PL","*","A","NA",,,,1,2782,"generic (ADJS>NA)",2409,"beide","V.N321.245.20",,"PL","M","NOM","3+3","PL+PL","*+*","A+A","DIA-KO","e",0,1,0,0,,"(M+F)+(M+F)","t>c",2,0,"attributive","N-321-853-a",,1286,"Rosheim","48.496944444444","7.4694444444444"
2393,2784,"da","V.N321.245.24",,,,,,,,,"AVD",,,,1,2785,"local adverbial",2410,"beide","V.N321.245.24",,,,,,,,,"DIA-KO","e",0,0,0,0,,"syntactic","t>c",0,0,,"N-321-853-a",,1286,"Rosheim","48.496944444444","7.4694444444444"
2393,2785,"an allin ſteitin","V.N321.245.24",,,,,,,,,"APPR",,,,1,2784,"local adverbial",2410,"beide","V.N321.245.24",,,,,,,,,"DIA-KO","e",0,0,0,0,,"syntactic","t>c",2,0,,"N-321-853-a",,1286,"Rosheim","48.496944444444","7.4694444444444"
2394,2786,"ritire","V.N321.245.29","3","PL","M","NOM","3","PL","M","A","NA",,,,1,2787,,2411,"beide","V.N321.245.29",,"PL","M","NOM","3+3","PL+PL","M+*","A+A","DIA-KO","e",0,,0,0,,"M+(M+F)","t>c",0,0,"attributive","N-321-853-a",,1286,"Rosheim","48.496944444444","7.4694444444444"
2394,2787,"burgere","V.N321.245.29","3","PL","M","NOM","3","PL","*","A","NA",,,,1,2786,"generic",2411,"beide","V.N321.245.29",,"PL","M","NOM","3+3","PL+PL","M+*","A+A","DIA-KO","e",0,0,0,0,,"M+(M+F)","t>c",2,0,"attributive","N-321-853-a",,1286,"Rosheim","48.496944444444","7.4694444444444"
2395,2788,"Albrehten","V.N328.251.01","3","SG","M","ACC","3","SG","M","A","NE",,,,1,2789,,2412,"paide","V.N328.251.01",,"SG","M","ACC","3+3","SG+SG","M+M","A+A","DIA-KO","e",0,1,0,0,,,"t>c",0,0,"attributive","N-328-905-a",,1287,"Wildungsmauer","48.066666666667","16.766666666667"
2395,2789,"Gvndacheren","V.N328.251.01","3","SG","M","ACC","3","SG","M","A","NE",,,,1,2788,,2412,"paide","V.N328.251.01",,"SG","M","ACC","3+3","SG+SG","M+M","A+A","DIA-KO","e",0,1,0,0,,,"t>c",2,0,"attributive","N-328-905-a",,1287,"Wildungsmauer","48.066666666667","16.766666666667"
2396,2790,"gegenburtigen","V.N377.283.11","3","PL","M","DAT","3","PL","*","A","NA",,,,1,2791,"generic (ADJS>NA)",2413,"paidev","V.N377.283.11",,"PL","M","DAT","3+3","PL+PL","*+*","A+A","DIA-KO","iu",0,,0,0,,"(M+F)+(M+F)","t>c",1,0,"attributive","N-377-1043-a",,1288,"Rothengrub","47.789722222222","16.056666666667"
2396,2791,"chvnftigen","V.N377.283.11","3","PL","M","DAT","3","PL","*","A","NA",,,,1,2790,"generic (ADJS>NA)",2413,"paidev","V.N377.283.11",,"PL","M","DAT","3+3","PL+PL","*+*","A+A","DIA-KO","iu",0,0,0,0,,"(M+F)+(M+F)","t>c",4,0,"attributive","N-377-1043-a",,1288,"Rothengrub","47.789722222222","16.056666666667"
2397,2792,"allen","V.N463.335.35","3","PL","Ø","DAT","3","PL","*","A","NA",,,,1,,"generic (DI>NA); ellipsis",2414,"die","V.N463.335.36","3","PL","?","DAT","3","PL","*","A","DRELS","e",0,0,1,,2793,,"c>t",10,2,"phoric","N-463-1297-a",,1290,"Hagenberg (Gemeinde Fallbach)","48.65","16.416666666667"
2397,2793,"die","V.N463.335.36","3","PL","?","DAT","3","PL","*","A","DRELS","e",0,0,1,2794,"relative clause (“die nv lebent”); ellipsis",2414,"baide","V.N463.335.36",,"PL","?","DAT","3+3","PL+PL","*+*","A+A","DIA-KO","e",0,,0,0,,"(M+F)+(M+F)","t>c",0,0,"attributive","N-463-1297-a",,1290,"Hagenberg (Gemeinde Fallbach)","48.65","16.416666666667"
2397,2792,"allen","V.N463.335.35","3","PL","Ø","DAT","3","PL","*","A","NA",,,,1,,"generic (DI>NA); ellipsis",2415,"[die]","V.N463.335.36","3","PL","?","DAT","3","PL","*","A","DRELS","e",0,0,1,,2794,,"c>t",14,2,"phoric","N-463-1297-a",,1290,"Hagenberg (Gemeinde Fallbach)","48.65","16.416666666667"
2397,2794,"[die]","V.N463.335.36","3","PL","?","DAT","3","PL","*","A","DRELS","e",0,0,1,2793,"relative clause (“[die] her nach chvnftich ſint”); ellipsis",2414,"baide","V.N463.335.36",,"PL","?","DAT","3+3","PL+PL","*+*","A+A","DIA-KO","e",0,0,0,0,,"(M+F)+(M+F)","t>c",4,0,"attributive","N-463-1297-a",,1290,"Hagenberg (Gemeinde Fallbach)","48.65","16.416666666667"
2398,2795,"an luten","V.N463.335.37",,,,,,,,,"APPR",,,,1,2796,"adverbial",2416,"baide","V.N463.335.37",,,,,,,,,"DIA-KO","e",0,1,0,0,,"syntactic","t>c",0,0,,"N-463-1297-a",,1290,"Hagenberg (Gemeinde Fallbach)","48.65","16.416666666667"
2398,2796,"an gute","V.N463.335.38",,,,,,,,,"APPR",,,,1,2795,"adverbial",2416,"baide","V.N463.335.37",,,,,,,,,"DIA-KO","e",0,1,0,0,,"syntactic","t>c",3,0,,"N-463-1297-a",,1290,"Hagenberg (Gemeinde Fallbach)","48.65","16.416666666667"
2399,2797,"Jch","V.N524.373.33","1","SG","M","NOM","1","SG","M","A","PPER",,,,1,2798,"“Heinrich der Kvͦffer” (V.N524.373.33)",2417,"wir","V.N524.374.05","1","PL","Ø","NOM","1+3","SG+SG","M+F","A+A","PPER",,,,1,,2799,,"c>t",143,2,"phoric","N-524-1545-a",,1292,"Colmar","48.081111111111","7.355"
2399,2798,"Agneſe","V.N524.373.33","3","SG","F","NOM","3","SG","F","A","NA",,,,1,2797,,2417,"wir","V.N524.374.05","1","PL","Ø","NOM","1+3","SG+SG","M+F","A+A","PPER",,,,1,,2799,,"c>t",134,2,"phoric","N-524-1545-a",,1292,"Colmar","48.081111111111","7.355"
2399,2799,"wir","V.N524.374.05","1","PL","Ø","NOM","1+3","SG+SG","M+F","A+A","PPER",,,,0,2800,,2418,"bede","V.N524.374.05",,"PL","Ø","NOM","1+3","PL+PL","*+F","A+A","DIA-KO","e",0,,0,0,,"(1SG.M.A+3SG.F.A)+3PL.F.A","t>c",0,0,"attributive","N-524-1545-a",,1292,"Colmar","48.081111111111","7.355"
2399,2800,"vrowen","V.N524.374.05","3","PL","F","NOM","3","PL","F","A","NA",,,,1,2799,"“den erberen vrowen der priorin vn̄ deme conventen der ſweſteren von Vnderlinden ze Kolmere” (V.N524.373.34-35)",2418,"bede","V.N524.374.05",,"PL","Ø","NOM","1+3","PL+PL","*+F","A+A","DIA-KO","e",0,0,0,0,,"(1SG.M.A+3SG.F.A)+3PL.F.A","t>c",5,0,"attributive","N-524-1545-a",,1292,"Colmar","48.081111111111","7.355"
2400,2801,"leip","V.N590.423.22","3","SG","M","ACC","3","SG","Ø","?","NA",,,,1,2802,"body part",2419,"baidev","V.N590.423.22",,"SG","M","ACC","3+3","SG+SG","Ø+Ø","?+I","DIA-KO","iu",0,,0,0,,,"t>c",0,0,"attributive","N-590-1769-b",,1293,"Wien","48.208330230278","16.373063840833"
2400,2802,"gvet","V.N590.423.22","3","SG","N","ACC","3","SG","Ø","I","NA",,,,1,2801,,2419,"baidev","V.N590.423.22",,"SG","M","ACC","3+3","SG+SG","Ø+Ø","?+I","DIA-KO","iu",0,0,0,0,,,"t>c",3,0,"attributive","N-590-1769-b",,1293,"Wien","48.208330230278","16.373063840833"
2401,2803,"vor","V.N689.499.25",,,,,,,,,"AVD",,,,1,2804,"temporal adverbial",2420,"beide","V.N689.499.25",,,,,,,,,"DIA-KO","e",0,0,0,0,,"syntactic","t>c",0,0,,"N-689-2123-c",,1295,"Straßburg","48.583611111111","7.7480555555556"
2401,2804,"noͤch","V.N689.499.25",,,,,,,,,"AVD",,,,1,2803,"temporal adverbial",2420,"beide","V.N689.499.25",,,,,,,,,"DIA-KO","e",0,0,0,0,,"syntactic","t>c",2,0,,"N-689-2123-c",,1295,"Straßburg","48.583611111111","7.7480555555556"
2404,2805,"nv","V.N709.512.08",,,,,,,,,"AVD",,,,1,2806,"temporal adverbial",2421,"beide","V.N709.512.08",,,,,,,,,"DIA-KO","e",0,0,0,0,,"syntactic","t>c",0,0,,"N-709-2163-b",,1295,"Neuenburg am Rhein","47.814722222222","7.5619444444444"
2404,2806,"her nach","V.N709.512.08",,,,,,,,,"AVD",,,,1,2805,"temporal adverbial",2421,"beide","V.N709.512.08",,,,,,,,,"DIA-KO","e",0,0,0,0,,"syntactic","t>c",2,0,,"N-709-2163-b",,1295,"Neuenburg am Rhein","47.814722222222","7.5619444444444"
2405,2807,"an meſſen","V.N748.539.29",,,,,,,,,"APPR",,,,1,2808,"adverbial",2422,"baidev","V.N748.539.29",,,,,,,,,"DIA-KO","iu",0,1,0,0,,"syntactic","t>c",0,0,,"N-748-2315-a",,1296,"Stift St. Paul im Lavanttal","46.700488888889","14.872758333333"
2405,2808,"an guͦter handelunge","V.N748.539.29",,,,,,,,,"APPR",,,,1,2807,"adverbial",2422,"baidev","V.N748.539.29",,,,,,,,,"DIA-KO","iu",0,1,0,0,,"syntactic","t>c",3,0,,"N-748-2315-a",,1296,"Stift St. Paul im Lavanttal","46.700488888889","14.872758333333"
2406,2809,"wir","V.N752.546.29","1","PL","Ø","NOM","1","SG","M","A","PPER",,,,1,2810,"“Cvͦnrat von gocz gnaden der biſchof von Strazburg” (V.N752.546.10); plural maiestatis",2423,"beide","V.N752.546.29",,"PL","Ø","NOM","1+3","SG+PL","M+*","A+A","DIA-KO","e",0,,0,0,,,"t>c",0,0,"attributive","N-752-2320-b",,1296,"Straßburg","48.583611111111","7.7480555555556"
2406,2810,"nackumen","V.N752.546.29","3","PL","M","NOM","3","PL","*","A","NA",,,,1,2809,"generic",2423,"beide","V.N752.546.29",,"PL","Ø","NOM","1+3","SG+PL","M+*","A+A","DIA-KO","e",0,0,0,0,,"M+(M+F)","t>c",4,0,"attributive","N-752-2320-b",,1296,"Straßburg","48.583611111111","7.7480555555556"
2407,2811,"weltlicher","V.N766.555.03",,"SG","F","GEN","3","SG","Ø","I","ADJN",,,,0,2812,"“anſprahe” (V.N766.555.03)",2424,"beidiv","V.N766.555.03",,,,,"3+3","SG+SG","Ø+Ø","I+I","DIA-KO","iu",0,0,0,0,,"syntactic","t>c",0,0,"attributive","N-766-2396-a",,1296,"Kloster Salem","47.776111111111","9.2772222222222"
2407,2812,"gaiſlicher","V.N766.555.03",,"SG","F","GEN","3","SG","Ø","I","ADJN",,,,0,2811,"“anſprahe” (V.N766.555.03)",2424,"beidiv","V.N766.555.03",,,,,"3+3","SG+SG","Ø+Ø","I+I","DIA-KO","iu",0,0,0,0,,"syntactic","t>c",2,0,"attributive","N-766-2396-a",,1296,"Kloster Salem","47.776111111111","9.2772222222222"
2408,2813,"nv","V.N766.555.08",,,,,,,,,"AVD",,,,1,2814,"temporal adverbial",2425,"beidiv","V.N766.555.08",,,,,,,,,"DIA-KO","iu",0,0,0,0,,"syntactic","t>c",0,0,,"N-766-2396-a",,1296,"Kloster Salem","47.776111111111","9.2772222222222"
2408,2814,"hie nach","V.N766.555.08",,,,,,,,,"AVD",,,,1,2813,"temporal adverbial",2425,"beidiv","V.N766.555.08",,,,,,,,,"DIA-KO","iu",0,0,0,0,,"syntactic","t>c",3,0,,"N-766-2396-a",,1296,"Kloster Salem","47.776111111111","9.2772222222222"
2409,2815,"allen","IV.3150.356.34","3","PL","Ø","DAT","3","PL","*","A","NA",,,,1,,"generic (DI>NA); ellipsis",2426,"di","IV.3150.356.35","3","PL","M","NOM","3","PL","*","A","DRELS","Ø",0,0,1,,2816,,"c>t",8,2,"phoric",3150,,1298,"Stift St. Bernhard",48.685277777778,15.595
2409,2816,"di","IV.3150.356.35","3","PL","M","NOM","3","PL","*","A","DRELS","Ø",0,0,1,2817,"relative clause (“di nv lebent”); ellipsis",2426,"peidev","IV.3150.356.35",,"PL","M","NOM","3+3","PL+PL","M+F","A+A","DIA-KO","iu",0,,0,0,,"(M+F)+(M+F)","t>c",0,0,"attributive",3150,,1298,"Stift St. Bernhard",48.685277777778,15.595
2409,2815,"allen","IV.3150.356.34","3","PL","Ø","DAT","3","PL","*","A","NA",,,,1,,"generic (DI>NA); ellipsis",2427,"[di]","IV.3150.356.35","3","PL","M","NOM","3","PL","*","A","DRELS","Ø",0,0,1,,2817,,"c>t",12,2,"phoric",3150,,1298,"Stift St. Bernhard",48.685277777778,15.595
2409,2817,"[di]","IV.3150.356.35","3","PL","M","NOM","3","PL","*","A","DRELS","Ø",0,0,1,2816,"relative clause (“[di] her nach chvmftig ſint”); ellipsis",2426,"peidev","IV.3150.356.35",,"PL","M","NOM","3+3","PL+PL","M+F","A+A","DIA-KO","iu",0,0,0,0,,"(M+F)+(M+F)","t>c",4,0,"attributive",3150,,1298,"Stift St. Bernhard",48.685277777778,15.595
